<svg viewBox="0 0 262 400" xmlns="http://www.w3.org/2000/svg">
    <path fill="#433116" d=" M 36.53 23.14 C 42.58 11.53 53.43 2.23 66.83 0.93 C 71.91 1.00 76.99 0.96 82.07 0.96 C 88.79 1.53 95.54 2.53 101.93 4.76 C 100.23 7.76 105.56 7.92 104.97 10.83 C 99.37 13.66 93.98 8.83 88.41 8.56 C 80.67 7.76 72.83 8.05 65.09 7.09 C 55.39 12.24 45.52 17.03 36.53 23.14 Z" />
    <path fill="#69451d" d=" M 101.93 4.76 C 119.97 10.11 125.26 30.60 127.97 46.95 C 123.80 44.97 118.93 46.95 115.08 48.97 C 112.18 50.14 115.99 49.92 117.17 50.20 C 114.83 50.58 112.49 50.93 110.15 51.26 C 103.82 50.12 116.70 46.52 112.54 42.39 C 113.86 37.67 112.08 34.10 107.26 32.77 C 110.55 24.38 106.81 16.57 97.88 15.93 C 87.07 12.14 75.33 13.02 64.10 12.01 C 56.54 15.75 54.57 24.71 52.00 32.02 C 52.64 36.95 57.28 40.54 62.03 41.18 C 63.12 45.15 60.86 48.47 59.86 52.05 C 58.69 52.49 57.51 52.91 56.32 53.30 C 56.40 47.66 51.79 44.63 46.86 47.79 C 41.95 48.42 43.57 54.83 47.32 56.18 C 45.90 56.74 44.48 57.28 43.05 57.82 C 42.32 56.25 41.49 54.72 40.87 53.10 C 38.34 47.62 46.37 42.11 42.08 36.96 C 39.72 33.72 30.87 31.89 33.23 39.23 C 33.11 37.09 32.93 34.96 32.84 32.81 C 33.86 29.52 34.90 26.19 36.53 23.14 C 45.52 17.03 55.39 12.24 65.09 7.09 C 72.83 8.05 80.67 7.76 88.41 8.56 C 93.98 8.83 99.37 13.66 104.97 10.83 C 105.56 7.92 100.23 7.76 101.93 4.76 Z" />
    <path fill="#916532" d=" M 52.00 32.02 C 54.57 24.71 56.54 15.75 64.10 12.01 C 75.33 13.02 87.07 12.14 97.88 15.93 C 100.93 18.94 105.55 22.16 104.23 27.12 C 102.04 33.70 101.00 40.40 105.91 45.88 C 102.39 50.08 97.24 47.79 92.84 47.42 C 92.34 47.32 91.33 47.11 90.83 47.01 C 95.61 45.06 94.50 39.14 98.07 36.05 C 104.04 32.21 98.52 22.45 93.21 22.03 C 90.16 26.91 91.39 33.31 91.80 38.78 C 89.15 41.33 83.67 42.60 81.15 39.71 C 82.99 32.44 78.83 25.48 80.62 18.25 C 78.34 10.67 70.58 19.65 66.62 21.51 C 58.74 19.45 52.48 29.08 55.18 35.78 C 60.15 35.30 65.02 35.27 68.86 39.12 C 68.42 42.75 65.53 46.29 66.80 50.03 C 64.49 50.71 62.18 51.39 59.86 52.05 C 60.86 48.47 63.12 45.15 62.03 41.18 C 57.28 40.54 52.64 36.95 52.00 32.02 Z" />
    <path fill="#aa804b" d=" M 66.62 21.51 C 70.58 19.65 78.34 10.67 80.62 18.25 C 78.83 25.48 82.99 32.44 81.15 39.71 C 83.67 42.60 89.15 41.33 91.80 38.78 C 91.39 33.31 90.16 26.91 93.21 22.03 C 98.52 22.45 104.04 32.21 98.07 36.05 C 94.50 39.14 95.61 45.06 90.83 47.01 C 82.60 45.99 74.58 47.56 66.80 50.03 C 65.53 46.29 68.42 42.75 68.86 39.12 C 65.02 35.27 60.15 35.30 55.18 35.78 C 52.48 29.08 58.74 19.45 66.62 21.51 Z" />
    <path fill="#7c5224" d=" M 97.88 15.93 C 106.81 16.57 110.55 24.38 107.26 32.77 C 112.08 34.10 113.86 37.67 112.54 42.39 C 116.70 46.52 103.82 50.12 110.15 51.26 C 107.33 51.70 104.37 51.67 101.79 53.02 C 98.32 52.04 95.68 49.49 92.84 47.42 C 97.24 47.79 102.39 50.08 105.91 45.88 C 101.00 40.40 102.04 33.70 104.23 27.12 C 105.55 22.16 100.93 18.94 97.88 15.93 Z" />
    <path fill="#837f60" d=" M 29.71 47.77 C 30.22 42.69 31.52 37.73 32.84 32.81 C 32.93 34.96 33.11 37.09 33.23 39.23 C 32.64 43.33 31.78 47.43 30.19 51.26 C 30.07 50.39 29.83 48.64 29.71 47.77 Z" />
    <path fill="#412e12" d=" M 33.23 39.23 C 30.87 31.89 39.72 33.72 42.08 36.96 C 46.37 42.11 38.34 47.62 40.87 53.10 C 41.49 54.72 42.32 56.25 43.05 57.82 C 38.45 59.69 33.65 61.53 30.08 65.12 C 30.12 60.50 30.01 55.88 30.19 51.26 C 31.78 47.43 32.64 43.33 33.23 39.23 Z" />
    <path fill="#8d6837" d=" M 46.86 47.79 C 51.79 44.63 56.40 47.66 56.32 53.30 C 54.62 53.93 52.90 54.50 51.17 55.06 C 49.88 55.41 48.60 55.79 47.32 56.18 C 43.57 54.83 41.95 48.42 46.86 47.79 Z" />
    <path fill="#170f06" d=" M 115.08 48.97 C 118.93 46.95 123.80 44.97 127.97 46.95 C 128.26 47.51 128.84 48.64 129.13 49.20 C 127.86 50.54 126.50 51.81 125.05 52.96 C 123.02 52.80 120.97 52.72 118.97 52.33 C 119.21 50.79 118.61 50.08 117.17 50.20 C 115.99 49.92 112.18 50.14 115.08 48.97 Z" />
    <path fill="#d6cbae" d=" M 66.80 50.03 C 74.58 47.56 82.60 45.99 90.83 47.01 C 91.33 47.11 92.34 47.32 92.84 47.42 C 95.68 49.49 98.32 52.04 101.79 53.02 C 101.18 53.82 100.56 54.61 99.93 55.40 C 96.14 53.81 93.28 50.47 89.16 49.62 C 86.73 48.42 83.53 47.25 81.90 49.89 C 77.51 50.45 73.07 51.10 68.87 52.53 C 63.85 53.32 64.13 58.92 63.10 62.86 C 62.44 63.66 61.75 64.45 61.05 65.22 C 59.84 64.07 59.09 63.92 58.80 64.78 C 58.32 67.93 57.94 71.11 57.78 74.29 C 54.92 72.04 58.24 67.48 55.32 65.59 C 53.17 63.66 51.08 61.66 48.92 59.75 C 50.97 59.02 50.96 56.90 51.17 55.06 C 52.90 54.50 54.62 53.93 56.32 53.30 C 57.51 52.91 58.69 52.49 59.86 52.05 C 62.18 51.39 64.49 50.71 66.80 50.03 Z" />
    <path fill="#cac9bf" d=" M 29.16 67.22 C 28.96 60.73 28.75 54.21 29.71 47.77 C 29.83 48.64 30.07 50.39 30.19 51.26 C 30.01 55.88 30.12 60.50 30.08 65.12 C 29.85 65.64 29.39 66.69 29.16 67.22 Z" />
    <path fill="#918166" d=" M 81.90 49.89 C 83.53 47.25 86.73 48.42 89.16 49.62 C 87.35 49.69 83.71 49.82 81.90 49.89 Z" />
    <path fill="#a07544" d=" M 129.13 49.20 C 130.46 49.26 131.95 48.81 133.17 49.51 C 131.33 51.27 129.74 53.26 128.12 55.22 C 124.84 57.60 122.77 56.99 125.05 52.96 C 126.50 51.81 127.86 50.54 129.13 49.20 Z" />
    <path fill="#484028" d=" M 68.87 52.53 C 73.07 51.10 77.51 50.45 81.90 49.89 C 83.71 49.82 87.35 49.69 89.16 49.62 C 93.28 50.47 96.14 53.81 99.93 55.40 L 99.85 56.14 C 99.57 57.46 99.81 58.79 100.04 60.10 C 95.78 60.72 90.53 59.96 87.43 56.71 C 81.11 58.93 73.40 57.80 68.87 52.53 Z" />
    <path fill="#b6a782" d=" M 117.17 50.20 C 118.61 50.08 119.21 50.79 118.97 52.33 C 116.00 52.88 113.05 53.49 110.08 54.02 C 107.25 54.39 104.53 55.29 101.79 56.06 C 101.30 56.08 100.33 56.12 99.85 56.14 L 99.93 55.40 C 100.56 54.61 101.18 53.82 101.79 53.02 C 104.37 51.67 107.33 51.70 110.15 51.26 C 112.49 50.93 114.83 50.58 117.17 50.20 Z" />
    <path fill="#25190f" d=" M 128.12 55.22 C 129.74 53.26 131.33 51.27 133.17 49.51 C 134.22 51.09 134.97 52.87 135.40 54.72 C 136.37 63.31 131.26 52.74 128.04 58.04 C 128.06 57.33 128.10 55.93 128.12 55.22 Z" />
    <path fill="#744d21" d=" M 110.08 54.02 C 113.05 53.49 116.00 52.88 118.97 52.33 C 120.97 52.72 123.02 52.80 125.05 52.96 C 122.77 56.99 124.84 57.60 128.12 55.22 C 128.10 55.93 128.06 57.33 128.04 58.04 C 128.03 58.73 128.01 60.13 128.00 60.83 C 124.90 64.95 124.39 59.62 122.05 57.76 C 122.06 61.14 122.74 64.47 123.25 67.81 C 121.55 77.26 118.58 88.68 109.18 93.28 C 112.14 100.35 98.67 106.58 95.08 99.84 C 105.46 97.21 112.29 87.81 118.50 79.71 C 118.63 74.61 114.15 71.26 112.28 66.92 C 113.49 62.87 112.11 58.50 108.13 56.64 C 108.75 55.74 109.41 54.88 110.08 54.02 Z" />
    <path fill="#090402" d=" M 63.10 62.86 C 64.13 58.92 63.85 53.32 68.87 52.53 C 73.40 57.80 81.11 58.93 87.43 56.71 C 90.53 59.96 95.78 60.72 100.04 60.10 C 100.51 61.28 100.96 62.47 101.33 63.69 C 99.81 66.42 100.33 69.38 101.32 72.18 C 97.25 70.70 93.01 70.70 90.91 74.96 C 84.81 78.05 78.29 73.55 71.82 74.09 C 70.48 72.81 69.21 71.46 67.97 70.10 C 70.13 68.48 68.54 65.98 66.10 66.91 C 65.10 65.56 64.09 64.22 63.10 62.86 Z" />
    <path fill="#3b2611" d=" M 101.79 56.06 C 104.53 55.29 107.25 54.39 110.08 54.02 C 109.41 54.88 108.75 55.74 108.13 56.64 C 107.81 57.10 107.18 58.02 106.86 58.48 C 105.64 59.74 104.39 60.97 103.12 62.18 C 102.61 60.15 102.14 58.12 101.79 56.06 Z" />
    <path fill="#afa98c" d=" M 47.32 56.18 C 48.60 55.79 49.88 55.41 51.17 55.06 C 50.96 56.90 50.97 59.02 48.92 59.75 C 42.22 61.61 34.75 63.54 30.33 69.29 C 27.72 73.37 29.22 78.60 30.01 83.04 C 23.32 79.74 27.45 72.55 29.16 67.22 C 29.39 66.69 29.85 65.64 30.08 65.12 C 33.65 61.53 38.45 59.69 43.05 57.82 C 44.48 57.28 45.90 56.74 47.32 56.18 Z" />
    <path fill="#4e371e" d=" M 59.34 55.40 C 62.92 54.13 59.04 66.23 55.19 60.81 C 50.25 57.45 56.11 56.13 59.34 55.40 Z" />
    <path fill="#98713d" d=" M 135.40 54.72 C 138.00 60.80 135.03 69.08 139.90 74.11 C 146.41 79.28 143.96 89.22 148.93 94.67 C 143.72 99.80 143.60 108.86 138.32 114.31 C 138.20 111.84 139.08 109.22 137.94 106.90 C 138.67 102.17 138.80 97.38 137.37 92.74 C 137.04 90.67 135.62 88.15 137.97 86.76 C 141.36 82.22 140.09 78.88 134.01 80.97 C 132.35 76.17 131.08 71.29 127.69 67.34 C 124.63 63.32 131.37 65.41 134.05 64.90 C 133.19 62.08 131.03 60.34 128.00 60.83 C 128.01 60.13 128.03 58.73 128.04 58.04 C 131.26 52.74 136.37 63.31 135.40 54.72 Z" />
    <path fill="#ddd6c4" d=" M 99.85 56.14 C 100.33 56.12 101.30 56.08 101.79 56.06 C 102.14 58.12 102.61 60.15 103.12 62.18 C 103.78 66.15 104.50 70.24 103.01 74.10 C 99.90 76.74 96.73 79.34 93.00 81.07 C 87.28 82.50 80.94 84.30 75.62 80.76 C 74.36 79.56 73.09 78.37 71.86 77.16 C 72.40 77.12 73.48 77.05 74.02 77.01 C 82.05 84.50 95.79 80.19 101.32 72.18 C 101.97 69.38 102.47 66.41 101.33 63.69 C 100.96 62.47 100.51 61.28 100.04 60.10 C 99.81 58.79 99.57 57.46 99.85 56.14 Z" />
    <path fill="#906734" d=" M 106.86 58.48 C 107.18 58.02 107.81 57.10 108.13 56.64 C 112.11 58.50 113.49 62.87 112.28 66.92 C 114.15 71.26 118.63 74.61 118.50 79.71 C 112.29 87.81 105.46 97.21 95.08 99.84 C 94.02 99.45 92.97 99.08 91.90 98.73 C 94.58 96.86 97.80 96.09 100.70 94.66 C 102.65 90.24 101.94 84.90 104.82 80.81 C 106.10 79.28 106.70 76.39 104.06 75.99 C 100.83 77.90 97.97 80.63 94.14 81.28 L 93.00 81.07 C 96.73 79.34 99.90 76.74 103.01 74.10 C 109.08 74.69 105.64 67.07 108.94 63.95 C 110.97 61.98 109.04 59.27 106.86 58.48 Z" />
    <path fill="#0b0b05" d=" M 122.05 57.76 C 124.39 59.62 124.90 64.95 128.00 60.83 C 131.03 60.34 133.19 62.08 134.05 64.90 C 131.37 65.41 124.63 63.32 127.69 67.34 C 131.08 71.29 132.35 76.17 134.01 80.97 C 136.14 82.40 138.70 83.71 137.97 86.76 C 135.62 88.15 137.04 90.67 137.37 92.74 C 137.25 97.37 134.59 102.76 137.94 106.90 C 137.37 110.63 136.73 114.35 136.15 118.08 C 138.70 119.12 141.20 114.29 142.81 117.48 C 140.29 119.18 137.32 121.08 137.92 124.59 C 135.10 125.01 134.59 130.49 132.98 133.12 C 132.12 134.14 131.22 135.14 130.30 136.12 C 128.20 137.13 126.46 138.68 125.99 141.05 C 119.05 148.80 112.17 156.58 104.80 163.93 C 102.78 165.85 100.80 167.81 98.87 169.83 C 97.57 170.32 96.70 171.51 96.86 172.93 C 96.47 173.29 95.68 174.00 95.29 174.35 C 92.45 172.22 89.33 170.52 86.03 169.21 C 84.12 178.32 74.32 184.79 75.91 194.16 C 75.27 195.07 74.63 195.98 73.98 196.89 C 73.19 197.64 72.43 198.42 71.68 199.21 C 70.11 195.29 71.28 191.59 73.35 188.31 C 74.82 186.43 76.17 184.34 76.08 181.84 C 74.57 183.22 73.28 184.80 71.91 186.31 C 71.66 185.70 71.16 184.47 70.91 183.85 C 71.81 178.07 67.89 183.89 66.72 186.02 C 66.46 185.70 65.93 185.05 65.67 184.73 C 68.01 181.23 70.63 177.93 73.13 174.55 C 73.55 176.45 72.33 180.27 75.52 178.74 C 76.12 176.04 79.34 172.82 75.92 170.87 C 78.28 168.05 83.85 164.89 81.38 160.79 C 76.51 158.30 71.51 155.74 66.40 153.58 C 53.55 143.97 44.68 129.62 40.73 114.12 C 41.38 112.74 41.56 110.85 40.07 109.93 C 39.98 109.51 39.79 108.69 39.70 108.27 C 39.86 97.68 46.18 113.31 50.92 112.05 C 50.72 108.31 50.08 104.60 49.84 100.86 C 50.67 98.66 51.48 96.45 52.39 94.28 C 55.11 94.82 57.58 94.71 59.05 92.04 C 65.72 101.63 76.69 80.86 81.27 93.02 C 77.16 93.81 72.51 93.60 69.45 96.96 C 69.04 97.25 68.22 97.85 67.81 98.15 C 65.18 100.04 62.75 102.22 60.80 104.82 C 59.81 105.57 58.81 106.31 57.85 107.10 C 54.81 112.45 64.94 108.76 68.27 108.35 C 72.23 107.36 76.19 105.59 80.37 106.76 C 78.92 107.21 77.47 107.64 76.02 108.04 C 71.29 109.84 66.89 112.43 61.64 112.66 C 55.04 115.25 64.19 120.61 68.00 119.88 C 73.47 118.43 79.42 117.39 83.94 113.74 C 87.80 113.99 82.63 118.85 81.99 121.07 C 80.24 122.11 78.47 123.12 76.74 124.20 C 75.54 124.95 74.44 125.86 73.51 126.92 C 71.73 129.53 68.75 132.80 71.23 135.87 C 73.90 136.95 75.58 134.65 77.20 132.99 C 80.24 131.94 80.09 135.98 81.98 136.84 C 83.99 133.89 87.20 132.90 90.59 133.68 C 90.79 130.39 91.52 127.09 91.10 123.79 C 90.81 121.15 92.19 118.79 92.44 116.21 C 92.44 108.87 101.24 108.32 106.23 109.25 C 109.23 107.30 101.64 108.71 104.81 106.68 C 112.19 102.53 113.97 93.03 119.29 87.31 C 123.74 87.55 119.03 81.90 122.99 80.98 C 128.96 78.61 123.22 71.95 123.25 67.81 C 122.74 64.47 122.06 61.14 122.05 57.76 Z" />
    <path fill="#ac834f" d=" M 103.12 62.18 C 104.39 60.97 105.64 59.74 106.86 58.48 C 109.04 59.27 110.97 61.98 108.94 63.95 C 105.64 67.07 109.08 74.69 103.01 74.10 C 104.50 70.24 103.78 66.15 103.12 62.18 Z" />
    <path fill="#070402" d=" M 30.33 69.29 C 34.75 63.54 42.22 61.61 48.92 59.75 C 51.08 61.66 53.17 63.66 55.32 65.59 C 54.79 73.81 55.91 82.28 53.17 90.23 C 52.43 90.66 51.69 91.09 50.96 91.53 C 48.73 92.64 46.46 93.67 44.15 94.59 C 42.67 93.24 40.33 93.20 38.84 94.56 C 38.42 94.37 37.59 93.99 37.18 93.80 C 36.90 93.56 36.36 93.09 36.09 92.86 C 36.11 90.95 34.75 89.55 33.01 89.01 C 32.02 87.01 31.02 85.02 30.01 83.04 C 29.22 78.60 27.72 73.37 30.33 69.29 Z" />
    <path fill="#bbaa85" d=" M 63.10 62.86 C 64.09 64.22 65.10 65.56 66.10 66.91 C 66.49 68.09 66.98 69.29 67.97 70.10 C 69.21 71.46 70.48 72.81 71.82 74.09 C 72.57 75.05 73.29 76.03 74.02 77.01 C 73.48 77.05 72.40 77.12 71.86 77.16 C 71.04 76.51 70.24 75.87 69.41 75.25 C 66.44 72.06 63.39 68.92 61.05 65.22 C 61.75 64.45 62.44 63.66 63.10 62.86 Z" />
    <path fill="#2e1b0d" d=" M 58.80 64.78 C 59.09 63.92 59.84 64.07 61.05 65.22 C 63.39 68.92 66.44 72.06 69.41 75.25 C 67.46 75.69 66.37 73.53 64.90 72.65 C 62.73 70.00 60.29 71.60 58.98 74.13 C 58.95 71.00 58.86 67.90 58.80 64.78 Z" />
    <path fill="#6c512f" d=" M 101.33 63.69 C 102.47 66.41 101.97 69.38 101.32 72.18 C 100.33 69.38 99.81 66.42 101.33 63.69 Z" />
    <path fill="#885827" d=" M 57.78 74.29 C 57.94 71.11 58.32 67.93 58.80 64.78 C 58.86 67.90 58.95 71.00 58.98 74.13 C 60.29 71.60 62.73 70.00 64.90 72.65 C 59.26 76.04 59.37 84.31 61.28 89.90 C 64.09 90.50 66.93 90.06 69.59 89.17 C 71.16 88.83 72.73 88.43 74.29 88.04 C 76.42 87.87 79.35 88.62 80.21 85.99 C 79.30 83.75 75.51 83.32 75.62 80.76 C 80.94 84.30 87.28 82.50 93.00 81.07 L 94.14 81.28 C 90.78 83.38 86.81 83.92 82.93 84.25 C 85.41 87.65 89.91 89.82 91.13 94.02 C 86.89 96.24 82.81 85.98 81.27 93.02 C 76.69 80.86 65.72 101.63 59.05 92.04 C 57.58 94.71 55.11 94.82 52.39 94.28 C 51.48 96.45 50.67 98.66 49.84 100.86 C 48.92 105.95 40.84 103.84 42.07 99.23 C 43.03 97.81 47.97 97.56 45.88 95.69 C 47.53 94.52 53.17 94.13 50.96 91.53 C 51.69 91.09 52.43 90.66 53.17 90.23 C 58.95 87.54 57.96 79.67 57.78 74.29 Z" />
    <path fill="#bdb08a" d=" M 55.32 65.59 C 58.24 67.48 54.92 72.04 57.78 74.29 C 57.96 79.67 58.95 87.54 53.17 90.23 C 55.91 82.28 54.79 73.81 55.32 65.59 Z" />
    <path fill="#6e5941" d=" M 66.10 66.91 C 68.54 65.98 70.13 68.48 67.97 70.10 C 66.98 69.29 66.49 68.09 66.10 66.91 Z" />
    <path fill="#2f230a" d=" M 123.25 67.81 C 123.22 71.95 128.96 78.61 122.99 80.98 C 119.03 81.90 123.74 87.55 119.29 87.31 C 113.97 93.03 112.19 102.53 104.81 106.68 C 101.64 108.71 109.23 107.30 106.23 109.25 C 101.24 108.32 92.44 108.87 92.44 116.21 C 92.06 113.71 92.01 110.95 90.36 108.88 C 89.00 108.15 87.55 107.60 86.13 107.01 C 86.92 105.65 86.87 104.51 85.13 104.24 C 84.08 103.80 83.02 103.38 81.96 102.97 C 79.82 99.55 83.09 102.01 84.91 102.66 C 87.40 99.80 89.93 103.47 92.65 104.07 C 93.21 102.45 92.60 99.69 95.08 99.84 C 98.67 106.58 112.14 100.35 109.18 93.28 C 118.58 88.68 121.55 77.26 123.25 67.81 Z" />
    <path fill="#462610" d=" M 90.91 74.96 C 93.01 70.70 97.25 70.70 101.32 72.18 C 95.79 80.19 82.05 84.50 74.02 77.01 C 73.29 76.03 72.57 75.05 71.82 74.09 C 78.29 73.55 84.81 78.05 90.91 74.96 Z" />
    <path fill="#ba854d" d=" M 61.28 89.90 C 59.37 84.31 59.26 76.04 64.90 72.65 C 66.37 73.53 67.46 75.69 69.41 75.25 C 70.24 75.87 71.04 76.51 71.86 77.16 C 73.09 78.37 74.36 79.56 75.62 80.76 C 75.51 83.32 79.30 83.75 80.21 85.99 C 79.35 88.62 76.42 87.87 74.29 88.04 C 70.54 86.99 66.90 85.44 63.01 84.94 C 61.75 89.17 66.74 88.23 69.59 89.17 C 66.93 90.06 64.09 90.50 61.28 89.90 Z" />
    <path fill="#af834e" d=" M 94.14 81.28 C 97.97 80.63 100.83 77.90 104.06 75.99 C 106.70 76.39 106.10 79.28 104.82 80.81 C 101.94 84.90 102.65 90.24 100.70 94.66 C 97.80 96.09 94.58 96.86 91.90 98.73 C 89.41 101.84 86.28 98.38 83.21 98.56 C 78.65 98.60 73.69 99.00 69.45 96.96 C 72.51 93.60 77.16 93.81 81.27 93.02 C 82.81 85.98 86.89 96.24 91.13 94.02 C 89.91 89.82 85.41 87.65 82.93 84.25 C 86.81 83.92 90.78 83.38 94.14 81.28 Z" />
    <path fill="#5e3916" d=" M 134.01 80.97 C 140.09 78.88 141.36 82.22 137.97 86.76 C 138.70 83.71 136.14 82.40 134.01 80.97 Z" />
    <path fill="#d4b588" d=" M 63.01 84.94 C 66.90 85.44 70.54 86.99 74.29 88.04 C 72.73 88.43 71.16 88.83 69.59 89.17 C 66.74 88.23 61.75 89.17 63.01 84.94 Z" />
    <path fill="#918663" d=" M 33.01 89.01 C 34.75 89.55 36.11 90.95 36.09 92.86 C 34.21 92.51 32.77 91.00 33.01 89.01 Z" />
    <path fill="#ccd0ba" d=" M 44.15 94.59 C 46.46 93.67 48.73 92.64 50.96 91.53 C 53.17 94.13 47.53 94.52 45.88 95.69 C 45.43 95.85 44.52 96.16 44.07 96.32 C 42.14 95.67 39.91 95.19 38.06 96.34 C 37.84 95.70 37.40 94.43 37.18 93.80 C 37.59 93.99 38.42 94.37 38.84 94.56 C 40.17 94.57 42.82 94.58 44.15 94.59 Z" />
    <path fill="#453918" d=" M 137.37 92.74 C 138.80 97.38 138.67 102.17 137.94 106.90 C 134.59 102.76 137.25 97.37 137.37 92.74 Z" />
    <path fill="#615c37" d=" M 38.84 94.56 C 40.33 93.20 42.67 93.24 44.15 94.59 C 42.82 94.58 40.17 94.57 38.84 94.56 Z" />
    <path fill="#3a311b" d=" M 138.32 114.31 C 143.60 108.86 143.72 99.80 148.93 94.67 C 149.74 95.33 150.50 96.03 151.23 96.78 C 148.61 98.94 146.70 101.75 145.89 105.09 C 148.79 105.18 147.93 99.75 151.23 101.72 C 149.52 104.70 148.14 107.86 146.97 111.09 C 148.70 109.04 150.32 106.91 152.08 104.89 C 151.26 108.09 149.50 110.90 147.76 113.66 C 144.68 117.34 142.34 122.68 137.92 124.59 C 137.32 121.08 140.29 119.18 142.81 117.48 C 141.20 114.29 138.70 119.12 136.15 118.08 C 136.73 114.35 137.37 110.63 137.94 106.90 C 139.08 109.22 138.20 111.84 138.32 114.31 Z" />
    <path fill="#6f6d59" d=" M 38.06 96.34 C 39.91 95.19 42.14 95.67 44.07 96.32 C 42.60 96.52 39.66 96.90 38.19 97.09 L 38.06 96.34 Z" />
    <path fill="#3e2a10" d=" M 44.07 96.32 C 44.52 96.16 45.43 95.85 45.88 95.69 C 47.97 97.56 43.03 97.81 42.07 99.23 C 40.84 103.84 48.92 105.95 49.84 100.86 C 50.08 104.60 50.72 108.31 50.92 112.05 C 46.18 113.31 39.86 97.68 39.70 108.27 C 39.28 106.57 38.97 104.84 38.67 103.11 C 39.38 101.41 39.56 99.37 38.29 97.88 L 38.19 97.09 C 39.66 96.90 42.60 96.52 44.07 96.32 Z" />
    <path fill="#6d491d" d=" M 67.81 98.15 C 68.22 97.85 69.04 97.25 69.45 96.96 C 73.69 99.00 78.65 98.60 83.21 98.56 C 86.28 98.38 89.41 101.84 91.90 98.73 C 92.97 99.08 94.02 99.45 95.08 99.84 C 92.60 99.69 93.21 102.45 92.65 104.07 C 89.93 103.47 87.40 99.80 84.91 102.66 C 83.09 102.01 79.82 99.55 81.96 102.97 C 78.93 102.94 75.91 102.91 72.88 102.97 C 79.33 97.75 69.08 101.46 67.81 98.15 Z" />
    <path fill="#7e7659" d=" M 151.23 96.78 C 152.85 98.07 151.58 100.13 151.23 101.72 C 147.93 99.75 148.79 105.18 145.89 105.09 C 146.70 101.75 148.61 98.94 151.23 96.78 Z" />
    <path fill="#9b988d" d=" M 38.29 97.88 C 39.56 99.37 39.38 101.41 38.67 103.11 C 37.46 101.59 37.63 99.58 38.29 97.88 Z" />
    <path fill="#372109" d=" M 60.80 104.82 C 62.75 102.22 65.18 100.04 67.81 98.15 C 69.08 101.46 79.33 97.75 72.88 102.97 C 68.84 103.50 64.80 104.07 60.80 104.82 Z" />
    <path fill="#725a2f" d=" M 151.23 101.72 C 153.66 102.34 155.97 103.35 158.06 104.74 C 155.63 108.11 159.42 108.35 161.93 109.23 C 159.49 113.98 152.56 114.36 147.76 113.66 C 149.50 110.90 151.26 108.09 152.08 104.89 C 150.32 106.91 148.70 109.04 146.97 111.09 C 148.14 107.86 149.52 104.70 151.23 101.72 Z" />
    <path fill="#a47440" d=" M 60.80 104.82 C 64.80 104.07 68.84 103.50 72.88 102.97 C 75.91 102.91 78.93 102.94 81.96 102.97 C 83.02 103.38 84.08 103.80 85.13 104.24 C 82.82 109.15 66.16 101.30 68.27 108.35 C 65.10 105.58 58.73 110.24 57.85 107.10 C 58.81 106.31 59.81 105.57 60.80 104.82 Z" />
    <path fill="#70491f" d=" M 85.13 104.24 C 86.87 104.51 86.92 105.65 86.13 107.01 C 84.21 107.00 82.28 106.93 80.37 106.76 C 76.19 105.59 72.23 107.36 68.27 108.35 C 66.16 101.30 82.82 109.15 85.13 104.24 Z" />
    <path fill="#936f3a" d=" M 158.06 104.74 C 162.79 107.55 167.65 110.14 172.23 113.19 C 159.09 117.86 144.61 124.01 132.98 133.12 C 134.59 130.49 135.10 125.01 137.92 124.59 C 142.34 122.68 144.68 117.34 147.76 113.66 C 152.56 114.36 159.49 113.98 161.93 109.23 C 159.42 108.35 155.63 108.11 158.06 104.74 Z" />
    <path fill="#5b3e19" d=" M 68.27 108.35 C 64.94 108.76 54.81 112.45 57.85 107.10 C 58.73 110.24 65.10 105.58 68.27 108.35 Z" />
    <path fill="#a98053" d=" M 76.02 108.04 C 77.47 107.64 78.92 107.21 80.37 106.76 C 82.28 106.93 84.21 107.00 86.13 107.01 C 83.99 108.63 82.51 110.88 80.68 112.80 C 77.66 113.84 77.44 109.73 76.02 108.04 Z" />
    <path fill="#926032" d=" M 86.13 107.01 C 87.55 107.60 89.00 108.15 90.36 108.88 C 88.19 110.45 86.00 112.01 83.94 113.74 C 79.42 117.39 73.47 118.43 68.00 119.88 C 64.19 120.61 55.04 115.25 61.64 112.66 C 66.89 112.43 71.29 109.84 76.02 108.04 C 77.44 109.73 77.66 113.84 80.68 112.80 C 82.51 110.88 83.99 108.63 86.13 107.01 Z" />
    <path fill="#654217" d=" M 90.36 108.88 C 92.01 110.95 92.06 113.71 92.44 116.21 C 92.19 118.79 90.81 121.15 91.10 123.79 C 90.22 124.70 89.34 125.60 88.42 126.46 C 88.96 124.66 89.55 122.88 89.98 121.05 C 87.31 121.24 84.63 121.70 81.99 121.07 C 82.63 118.85 87.80 113.99 83.94 113.74 C 86.00 112.01 88.19 110.45 90.36 108.88 Z" />
    <path fill="#a8a7a5" d=" M 40.07 109.93 C 41.56 110.85 41.38 112.74 40.73 114.12 C 39.61 112.99 39.60 111.35 40.07 109.93 Z" />
    <path fill="#f5f4f4" d=" M 172.23 113.19 C 188.31 125.26 198.47 143.27 213.96 156.04 C 231.78 177.75 249.16 201.07 257.71 228.21 C 260.02 237.68 253.96 246.41 255.90 255.84 C 255.50 256.22 254.70 256.99 254.30 257.37 C 243.06 256.38 250.11 276.28 246.04 279.82 C 234.89 272.71 224.29 264.60 212.62 258.34 C 209.84 254.21 203.83 261.50 209.02 261.93 C 220.59 269.21 233.99 274.31 243.02 284.90 C 247.61 287.78 246.72 293.99 246.74 298.69 C 245.31 306.33 248.60 315.67 242.84 321.99 C 235.66 317.69 231.00 309.97 222.87 306.96 C 232.33 316.08 245.11 325.93 242.04 340.50 C 239.88 339.20 237.74 337.87 235.47 336.79 C 234.18 336.13 232.87 335.51 231.55 334.93 C 224.72 331.37 217.51 328.13 211.83 322.79 C 202.51 313.94 195.62 302.93 185.88 294.50 C 189.19 294.94 192.44 295.69 195.78 296.04 C 195.07 293.85 195.61 292.49 198.12 292.56 C 196.61 290.93 194.34 290.65 192.28 290.25 C 183.24 287.61 174.32 284.12 164.94 282.92 L 164.12 282.81 C 160.82 282.32 157.52 282.00 154.20 281.83 C 153.37 281.31 152.55 280.79 151.73 280.27 C 151.84 266.86 146.60 253.83 141.40 241.57 C 138.77 232.82 150.83 230.76 156.18 234.88 C 159.84 237.10 165.24 244.14 169.91 239.73 C 170.86 231.57 161.20 227.54 154.73 225.21 C 146.57 200.40 144.90 173.08 148.67 146.94 C 148.16 142.88 143.32 143.89 141.20 146.21 C 131.87 150.21 128.14 160.31 119.25 164.74 C 117.26 162.22 115.19 159.75 113.57 156.97 C 118.27 152.19 123.35 147.34 125.99 141.05 C 127.78 139.75 129.33 138.14 130.30 136.12 C 131.22 135.14 132.12 134.14 132.98 133.12 C 144.61 124.01 159.09 117.86 172.23 113.19 Z" />
    <path fill="#a77f4a" d=" M 76.74 124.20 C 78.47 123.12 80.24 122.11 81.99 121.07 C 84.63 121.70 87.31 121.24 89.98 121.05 C 89.55 122.88 88.96 124.66 88.42 126.46 C 87.34 127.89 85.42 127.84 83.83 128.19 C 81.59 126.90 77.81 127.04 76.74 124.20 Z" />
    <path fill="#614016" d=" M 73.51 126.92 C 74.44 125.86 75.54 124.95 76.74 124.20 C 77.81 127.04 81.59 126.90 83.83 128.19 C 80.98 131.34 74.96 131.55 73.51 126.92 Z" />
    <path fill="#2e260f" d=" M 88.42 126.46 C 89.34 125.60 90.22 124.70 91.10 123.79 C 91.52 127.09 90.79 130.39 90.59 133.68 C 87.20 132.90 83.99 133.89 81.98 136.84 C 80.09 135.98 80.24 131.94 77.20 132.99 C 75.58 134.65 73.90 136.95 71.23 135.87 C 68.75 132.80 71.73 129.53 73.51 126.92 C 74.96 131.55 80.98 131.34 83.83 128.19 C 85.42 127.84 87.34 127.89 88.42 126.46 Z" />
    <path fill="#9e9875" d=" M 125.99 141.05 C 126.46 138.68 128.20 137.13 130.30 136.12 C 129.33 138.14 127.78 139.75 125.99 141.05 Z" />
    <path fill="#979a8d" d=" M 104.80 163.93 C 112.17 156.58 119.05 148.80 125.99 141.05 C 123.35 147.34 118.27 152.19 113.57 156.97 C 111.67 158.87 109.81 160.82 108.01 162.83 C 106.94 163.20 105.87 163.57 104.80 163.93 Z" />
    <path fill="#eff0f5" d=" M 141.20 146.21 C 143.32 143.89 148.16 142.88 148.67 146.94 C 144.90 173.08 146.57 200.40 154.73 225.21 C 161.20 227.54 170.86 231.57 169.91 239.73 C 165.24 244.14 159.84 237.10 156.18 234.88 C 150.83 230.76 138.77 232.82 141.40 241.57 C 146.60 253.83 151.84 266.86 151.73 280.27 C 150.39 279.37 147.50 279.36 148.26 277.11 C 150.40 265.69 141.26 256.47 140.63 245.33 C 135.82 241.45 131.58 253.05 133.01 257.07 C 132.98 257.58 132.92 258.59 132.89 259.09 C 130.32 261.24 126.37 257.86 129.49 254.43 C 129.72 245.44 137.35 238.75 138.02 230.13 C 135.49 229.19 131.41 224.91 129.16 228.28 C 130.06 238.65 127.85 248.62 126.25 258.76 C 123.94 261.20 121.87 258.42 120.01 256.95 C 117.17 253.56 114.94 249.71 111.94 246.47 C 108.74 241.96 104.28 240.17 106.13 248.69 C 110.42 258.28 101.16 258.96 97.82 252.87 C 96.31 251.08 93.96 250.39 92.19 248.93 C 95.41 242.85 100.20 236.08 97.14 228.88 C 93.51 220.73 94.31 211.48 99.18 204.12 C 99.38 195.02 103.47 186.39 103.24 177.13 C 104.48 172.23 111.25 168.27 108.01 162.83 C 109.81 160.82 111.67 158.87 113.57 156.97 C 115.19 159.75 117.26 162.22 119.25 164.74 C 128.14 160.31 131.87 150.21 141.20 146.21 Z" />
    <path fill="#9b9ba2" d=" M 81.38 160.79 C 83.85 164.89 78.28 168.05 75.92 170.87 C 74.76 171.91 73.91 173.22 73.13 174.55 C 70.63 177.93 68.01 181.23 65.67 184.73 C 65.21 185.02 64.28 185.60 63.82 185.88 C 66.60 175.87 75.69 169.12 81.38 160.79 Z" />
    <path fill="#e7e7e7" d=" M 104.80 163.93 C 105.87 163.57 106.94 163.20 108.01 162.83 C 111.25 168.27 104.48 172.23 103.24 177.13 C 103.47 186.39 99.38 195.02 99.18 204.12 C 94.31 211.48 93.51 220.73 97.14 228.88 C 100.20 236.08 95.41 242.85 92.19 248.93 C 93.96 250.39 96.31 251.08 97.82 252.87 C 95.01 252.98 96.77 256.50 96.27 258.34 C 94.08 256.48 91.78 254.67 88.98 253.85 C 86.73 252.89 84.45 252.01 82.21 251.05 C 75.50 248.61 75.06 242.12 74.31 235.74 C 74.23 234.23 74.19 232.72 74.19 231.22 C 72.64 219.67 78.64 210.59 84.26 201.30 C 85.42 194.81 92.51 189.61 88.96 182.74 C 90.96 179.86 93.25 177.19 95.29 174.35 C 95.68 174.00 96.47 173.29 96.86 172.93 C 98.45 172.85 99.43 171.31 98.87 169.83 C 100.80 167.81 102.78 165.85 104.80 163.93 Z" />
    <path fill="#2e3023" d=" M 86.03 169.21 C 89.33 170.52 92.45 172.22 95.29 174.35 C 93.25 177.19 90.96 179.86 88.96 182.74 C 87.93 184.15 86.90 185.56 85.88 186.97 C 82.58 185.92 83.14 189.18 84.22 191.08 C 81.52 188.48 80.33 191.47 83.17 193.03 C 80.57 191.73 78.79 194.72 81.25 196.31 C 80.09 195.94 78.94 195.56 77.78 195.17 C 79.89 191.63 78.52 191.94 75.91 194.16 C 74.32 184.79 84.12 178.32 86.03 169.21 Z" />
    <path fill="#8b8e7b" d=" M 96.86 172.93 C 96.70 171.51 97.57 170.32 98.87 169.83 C 99.43 171.31 98.45 172.85 96.86 172.93 Z" />
    <path fill="#2f2d25" d=" M 73.13 174.55 C 73.91 173.22 74.76 171.91 75.92 170.87 C 79.34 172.82 76.12 176.04 75.52 178.74 C 72.33 180.27 73.55 176.45 73.13 174.55 Z" />
    <path fill="#747e80" d=" M 66.72 186.02 C 67.89 183.89 71.81 178.07 70.91 183.85 C 69.06 186.39 67.22 188.96 64.98 191.17 C 65.46 189.42 66.09 187.72 66.72 186.02 Z" />
    <path fill="#5f6c6c" d=" M 71.91 186.31 C 73.28 184.80 74.57 183.22 76.08 181.84 C 76.17 184.34 74.82 186.43 73.35 188.31 C 73.06 187.98 72.48 187.33 72.18 187.00 L 71.91 186.31 Z" />
    <path fill="#d1d2d1" d=" M 85.88 186.97 C 86.90 185.56 87.93 184.15 88.96 182.74 C 92.51 189.61 85.42 194.81 84.26 201.30 C 78.64 210.59 72.64 219.67 74.19 231.22 C 74.10 230.48 73.91 229.00 73.82 228.27 C 73.73 224.80 74.57 221.20 73.35 217.87 C 72.89 216.32 72.34 214.81 71.76 213.31 C 74.67 207.51 78.30 202.10 81.25 196.31 C 82.17 195.40 82.95 194.33 83.17 193.03 C 83.44 192.54 83.96 191.57 84.22 191.08 C 85.10 189.87 85.96 188.53 85.88 186.97 Z" />
    <path fill="#2a2a1f" d=" M 64.98 191.17 C 67.22 188.96 69.06 186.39 70.91 183.85 C 71.16 184.47 71.66 185.70 71.91 186.31 L 72.18 187.00 C 67.80 194.47 63.82 202.26 61.01 210.47 C 58.78 211.00 56.75 209.67 54.92 208.57 C 56.72 200.53 61.95 193.88 63.82 185.88 C 64.28 185.60 65.21 185.02 65.67 184.73 C 65.93 185.05 66.46 185.70 66.72 186.02 C 66.09 187.72 65.46 189.42 64.98 191.17 Z" />
    <path fill="#a7aaae" d=" M 49.95 206.34 C 53.92 199.09 59.48 192.91 63.82 185.88 C 61.95 193.88 56.72 200.53 54.92 208.57 C 53.28 207.79 51.61 207.08 49.95 206.34 Z" />
    <path fill="#91989e" d=" M 72.18 187.00 C 72.48 187.33 73.06 187.98 73.35 188.31 C 71.28 191.59 70.11 195.29 71.68 199.21 C 68.56 202.90 65.18 206.44 62.84 210.70 C 62.38 210.64 61.47 210.53 61.01 210.47 C 63.82 202.26 67.80 194.47 72.18 187.00 Z" />
    <path fill="#808271" d=" M 84.22 191.08 C 83.14 189.18 82.58 185.92 85.88 186.97 C 85.96 188.53 85.10 189.87 84.22 191.08 Z" />
    <path fill="#878a7b" d=" M 83.17 193.03 C 80.33 191.47 81.52 188.48 84.22 191.08 C 83.96 191.57 83.44 192.54 83.17 193.03 Z" />
    <path fill="#8b9390" d=" M 75.91 194.16 C 78.52 191.94 79.89 191.63 77.78 195.17 C 76.85 195.77 75.93 196.39 75.00 196.99 L 73.98 196.89 C 74.63 195.98 75.27 195.07 75.91 194.16 Z" />
    <path fill="#7d8070" d=" M 81.25 196.31 C 78.79 194.72 80.57 191.73 83.17 193.03 C 82.95 194.33 82.17 195.40 81.25 196.31 Z" />
    <path fill="#545345" d=" M 75.00 196.99 C 75.93 196.39 76.85 195.77 77.78 195.17 C 78.94 195.56 80.09 195.94 81.25 196.31 C 78.30 202.10 74.67 207.51 71.76 213.31 C 69.95 212.56 68.58 211.35 69.03 209.22 C 71.60 205.46 74.16 201.56 75.00 196.99 Z" />
    <path fill="#d0d1ce" d=" M 71.68 199.21 C 72.43 198.42 73.19 197.64 73.98 196.89 L 75.00 196.99 C 74.16 201.56 71.60 205.46 69.03 209.22 C 67.53 211.28 65.11 211.23 62.84 210.70 C 65.18 206.44 68.56 202.90 71.68 199.21 Z" />
    <path fill="#ae8752" d=" M 21.57 211.44 C 27.47 204.41 35.89 198.52 44.92 204.02 C 42.63 213.60 55.15 215.81 61.79 215.14 C 60.15 219.53 63.47 217.38 66.03 216.42 C 68.48 216.87 70.86 217.64 73.35 217.87 C 74.57 221.20 73.73 224.80 73.82 228.27 C 72.50 226.47 72.52 222.05 69.39 223.25 C 67.95 225.57 64.31 229.55 62.04 226.02 C 59.88 223.15 61.29 228.80 62.10 229.94 C 58.15 229.19 51.08 228.96 52.47 222.41 C 56.77 216.97 48.28 213.70 43.96 215.86 C 38.19 216.65 40.09 224.84 44.93 225.52 C 43.86 227.90 38.39 231.60 43.30 232.77 C 46.11 233.14 47.58 227.54 50.90 230.03 C 55.42 230.75 55.20 236.49 58.87 238.48 C 62.67 240.66 57.73 242.06 57.03 244.67 C 58.86 244.81 60.39 245.22 59.36 247.29 C 58.08 247.94 56.80 248.60 55.52 249.25 C 53.00 247.53 50.38 245.98 47.84 244.28 C 59.20 244.55 50.40 240.95 47.92 237.02 C 45.06 236.01 40.98 238.29 41.70 233.39 C 38.94 234.26 36.89 232.12 39.67 230.19 C 37.45 229.49 35.24 228.79 33.13 227.80 C 35.68 224.87 33.82 220.71 29.93 220.44 C 31.61 218.56 36.20 219.83 34.86 216.24 C 32.45 212.93 27.36 217.48 26.56 219.69 C 30.23 224.00 22.15 221.27 24.56 217.81 C 19.61 218.47 19.81 223.46 19.28 227.44 C 16.92 228.13 14.78 227.01 12.79 225.87 C 18.58 222.28 13.43 212.37 21.57 211.44 Z" />
    <path fill="#bf9261" d=" M 44.92 204.02 C 46.60 204.80 48.26 205.61 49.95 206.34 C 51.61 207.08 53.28 207.79 54.92 208.57 C 56.75 209.67 58.78 211.00 61.01 210.47 C 61.47 210.53 62.38 210.64 62.84 210.70 C 65.11 211.23 67.53 211.28 69.03 209.22 C 68.58 211.35 69.95 212.56 71.76 213.31 C 72.34 214.81 72.89 216.32 73.35 217.87 C 70.86 217.64 68.48 216.87 66.03 216.42 C 63.47 217.38 60.15 219.53 61.79 215.14 C 55.15 215.81 42.63 213.60 44.92 204.02 Z" />
    <path fill="#7d5f2e" d=" M 26.56 219.69 C 27.36 217.48 32.45 212.93 34.86 216.24 C 36.20 219.83 31.61 218.56 29.93 220.44 C 33.82 220.71 35.68 224.87 33.13 227.80 C 35.24 228.79 37.45 229.49 39.67 230.19 C 36.89 232.12 38.94 234.26 41.70 233.39 C 40.98 238.29 45.06 236.01 47.92 237.02 C 50.40 240.95 59.20 244.55 47.84 244.28 C 50.38 245.98 53.00 247.53 55.52 249.25 C 46.87 251.13 43.81 259.42 42.39 267.24 C 42.13 259.95 41.09 270.05 37.98 265.09 C 35.26 260.93 30.21 255.83 34.09 250.98 C 29.94 255.30 27.80 251.59 24.17 248.83 C 22.48 246.05 17.39 245.83 18.42 241.87 C 14.57 239.65 13.99 242.88 13.03 244.90 C 15.94 246.60 22.27 247.63 19.13 252.13 C 15.43 255.26 11.41 250.42 7.62 249.67 C 6.14 247.33 4.46 245.14 2.58 243.10 C 4.74 241.81 6.65 240.13 7.97 237.98 C 12.06 241.68 20.37 238.26 23.76 234.57 C 29.33 236.45 23.92 231.58 26.74 228.68 C 23.51 231.36 19.72 233.25 19.28 227.44 C 19.81 223.46 19.61 218.47 24.56 217.81 C 22.15 221.27 30.23 224.00 26.56 219.69 Z" />
    <path fill="#bd9561" d=" M 43.96 215.86 C 48.28 213.70 56.77 216.97 52.47 222.41 C 51.08 228.96 58.15 229.19 62.10 229.94 C 62.33 230.79 63.92 232.90 62.03 232.86 C 57.82 232.64 62.99 238.48 58.87 238.48 C 55.20 236.49 55.42 230.75 50.90 230.03 C 47.58 227.54 46.11 233.14 43.30 232.77 C 38.39 231.60 43.86 227.90 44.93 225.52 C 40.09 224.84 38.19 216.65 43.96 215.86 Z" />
    <path fill="#8c7445" d=" M 69.39 223.25 C 72.52 222.05 72.50 226.47 73.82 228.27 C 73.91 229.00 74.10 230.48 74.19 231.22 C 74.19 232.72 74.23 234.23 74.31 235.74 C 77.33 245.93 65.25 244.18 59.36 247.29 C 60.39 245.22 58.86 244.81 57.03 244.67 C 57.73 242.06 62.67 240.66 58.87 238.48 C 62.99 238.48 57.82 232.64 62.03 232.86 C 63.92 232.90 62.33 230.79 62.10 229.94 C 61.29 228.80 59.88 223.15 62.04 226.02 C 64.31 229.55 67.95 225.57 69.39 223.25 Z" />
    <path fill="#9a6f35" d=" M 8.94 233.84 C 10.52 231.32 10.69 228.06 12.79 225.87 C 14.78 227.01 16.92 228.13 19.28 227.44 C 19.72 233.25 23.51 231.36 26.74 228.68 C 23.92 231.58 29.33 236.45 23.76 234.57 C 20.37 238.26 12.06 241.68 7.97 237.98 C 8.25 236.59 8.56 235.21 8.94 233.84 Z" />
    <path fill="#e7e4e7" d=" M 129.16 228.28 C 131.41 224.91 135.49 229.19 138.02 230.13 C 137.35 238.75 129.72 245.44 129.49 254.43 C 126.37 257.86 130.32 261.24 132.89 259.09 C 132.65 261.43 132.44 263.79 132.27 266.15 C 132.71 269.41 133.66 273.01 129.10 272.80 C 127.95 268.17 129.53 262.56 126.25 258.76 C 127.85 248.62 130.06 238.65 129.16 228.28 Z" />
    <path fill="#d5ceb5" d=" M 0.00 238.30 C 2.62 236.15 5.27 233.59 8.94 233.84 C 8.56 235.21 8.25 236.59 7.97 237.98 C 6.65 240.13 4.74 241.81 2.58 243.10 C 6.69 238.66 2.20 238.10 1.02 242.91 L 0.00 242.94 L 0.00 238.30 Z" />
    <path fill="#dad1bc" d=" M 74.31 235.74 C 75.06 242.12 75.50 248.61 82.21 251.05 C 79.33 252.69 76.59 254.58 74.45 257.14 C 70.70 260.59 70.43 266.23 66.94 270.00 C 64.90 271.89 62.97 274.11 60.35 275.19 L 59.41 274.99 C 57.96 274.53 56.49 274.13 55.03 273.72 C 60.72 271.44 67.49 265.90 63.39 259.33 C 63.81 251.78 52.88 250.87 49.22 256.24 C 46.48 258.61 49.51 258.18 50.92 259.84 C 49.11 264.78 42.04 262.04 44.81 268.99 C 44.11 268.99 42.72 268.99 42.02 268.98 C 42.12 268.55 42.30 267.68 42.39 267.24 C 43.81 259.42 46.87 251.13 55.52 249.25 C 56.80 248.60 58.08 247.94 59.36 247.29 C 65.25 244.18 77.33 245.93 74.31 235.74 Z" />
    <path fill="#856a4a" d=" M 1.02 242.91 C 2.20 238.10 6.69 238.66 2.58 243.10 C 2.19 243.05 1.41 242.96 1.02 242.91 Z" />
    <path fill="#543c18" d=" M 13.03 244.90 C 13.99 242.88 14.57 239.65 18.42 241.87 C 17.39 245.83 22.48 246.05 24.17 248.83 C 27.80 251.59 29.94 255.30 34.09 250.98 C 30.21 255.83 35.26 260.93 37.98 265.09 C 33.88 262.25 28.04 264.31 24.37 260.63 C 21.14 257.25 16.47 253.43 11.50 254.89 C 9.92 253.38 8.70 251.56 7.62 249.67 C 11.41 250.42 15.43 255.26 19.13 252.13 C 22.27 247.63 15.94 246.60 13.03 244.90 Z" />
    <path fill="#e8e2de" d=" M 106.13 248.69 C 104.28 240.17 108.74 241.96 111.94 246.47 C 108.38 257.28 119.64 264.28 123.28 272.89 C 118.47 272.05 114.05 269.78 110.01 267.10 C 106.70 261.63 112.35 251.80 106.13 248.69 Z" />
    <path fill="#e5e3e5" d=" M 133.01 257.07 C 131.58 253.05 135.82 241.45 140.63 245.33 C 141.26 256.47 150.40 265.69 148.26 277.11 C 147.50 279.36 150.39 279.37 151.73 280.27 C 152.55 280.79 153.37 281.31 154.20 281.83 C 150.07 281.96 145.95 282.06 141.83 282.15 L 141.41 281.31 C 147.10 274.80 143.97 264.43 138.49 258.66 C 138.80 254.42 135.33 254.40 133.01 257.07 Z" />
    <path fill="#9b9289" d=" M 123.28 272.89 C 119.64 264.28 108.38 257.28 111.94 246.47 C 114.94 249.71 117.17 253.56 120.01 256.95 C 121.04 259.63 122.03 262.34 123.17 265.00 C 125.02 264.18 124.64 261.09 126.94 260.76 C 127.02 265.17 127.01 269.60 126.89 274.03 C 125.70 273.60 124.49 273.23 123.28 272.89 Z" />
    <path fill="#cac2bf" d=" M 106.13 248.69 C 112.35 251.80 106.70 261.63 110.01 267.10 C 105.96 264.84 102.31 261.90 99.32 258.36 C 98.92 260.55 97.33 259.18 96.27 258.34 C 96.77 256.50 95.01 252.98 97.82 252.87 C 101.16 258.96 110.42 258.28 106.13 248.69 Z" />
    <path fill="#84693e" d=" M 82.21 251.05 C 84.45 252.01 86.73 252.89 88.98 253.85 C 91.76 260.07 97.91 261.68 103.10 264.85 C 104.45 272.41 112.45 273.01 118.70 273.17 C 120.13 275.69 125.35 286.58 124.35 278.85 C 131.45 280.40 138.29 283.59 143.97 288.06 C 147.12 289.24 151.03 285.21 153.74 288.26 C 157.43 290.57 167.07 294.82 163.25 286.93 C 167.01 287.66 170.76 288.74 174.62 288.85 C 175.70 289.25 176.79 289.64 177.88 290.04 C 178.21 290.32 178.87 290.87 179.20 291.14 C 175.43 290.91 173.08 291.67 175.08 294.94 C 168.21 289.74 176.43 300.99 175.25 303.38 C 171.44 307.32 168.02 293.40 169.83 306.20 C 168.10 303.45 163.55 298.83 160.86 302.83 C 159.70 304.94 157.23 305.08 155.15 305.68 C 152.28 302.69 149.17 299.73 144.83 299.24 C 141.18 299.12 140.44 294.59 137.01 293.89 C 133.75 292.52 130.55 290.67 126.88 290.88 C 121.34 291.73 114.04 287.91 113.75 282.00 C 115.33 277.22 106.82 283.99 107.46 279.66 C 105.13 275.74 96.94 270.84 93.41 276.22 C 89.64 275.63 89.61 272.68 92.88 271.13 C 88.10 270.98 87.86 267.91 89.02 263.94 C 84.78 266.55 83.05 265.85 84.87 260.83 C 81.35 265.24 79.90 258.88 78.89 256.13 C 77.42 256.49 75.97 257.01 74.45 257.14 C 76.59 254.58 79.33 252.69 82.21 251.05 Z" />
    <path fill="#b3ab92" d=" M 49.22 256.24 C 52.88 250.87 63.81 251.78 63.39 259.33 C 60.71 257.85 58.44 253.71 55.07 256.03 C 52.11 256.19 54.48 263.31 50.92 259.84 C 49.51 258.18 46.48 258.61 49.22 256.24 Z" />
    <path fill="#2b2317" d=" M 11.50 254.89 C 16.47 253.43 21.14 257.25 24.37 260.63 C 28.04 264.31 33.88 262.25 37.98 265.09 C 41.09 270.05 42.13 259.95 42.39 267.24 C 42.30 267.68 42.12 268.55 42.02 268.98 C 41.93 269.41 41.75 270.25 41.66 270.67 C 41.36 271.97 41.20 273.30 41.11 274.64 C 39.37 280.93 41.87 291.00 36.17 294.96 C 35.31 293.88 35.01 291.85 33.26 292.07 C 28.64 297.74 26.05 306.83 20.90 312.52 C 16.42 309.39 23.28 305.98 23.30 302.09 C 25.95 302.85 26.87 300.16 25.98 298.10 C 26.13 297.84 26.45 297.31 26.61 297.05 C 27.60 295.81 29.74 294.32 28.12 292.66 C 30.86 290.62 29.20 288.86 27.04 287.22 C 32.72 285.38 34.29 278.54 34.61 273.29 C 32.27 268.00 24.39 268.54 20.25 264.82 C 19.25 263.82 18.23 262.83 17.21 261.85 C 15.20 259.62 13.42 257.20 11.50 254.89 Z" />
    <path fill="#9d8059" d=" M 88.98 253.85 C 91.78 254.67 94.08 256.48 96.27 258.34 C 97.33 259.18 98.92 260.55 99.32 258.36 C 102.31 261.90 105.96 264.84 110.01 267.10 C 114.05 269.78 118.47 272.05 123.28 272.89 C 124.49 273.23 125.70 273.60 126.89 274.03 C 129.36 279.54 137.09 279.11 141.83 282.15 C 149.14 283.80 156.70 282.75 164.12 282.81 L 164.94 282.92 C 173.81 286.59 156.14 282.97 163.25 286.93 C 167.07 294.82 157.43 290.57 153.74 288.26 C 151.03 285.21 147.12 289.24 143.97 288.06 C 138.29 283.59 131.45 280.40 124.35 278.85 C 125.35 286.58 120.13 275.69 118.70 273.17 C 112.45 273.01 104.45 272.41 103.10 264.85 C 97.91 261.68 91.76 260.07 88.98 253.85 Z" />
    <path fill="#efe9d8" d=" M 55.07 256.03 C 58.44 253.71 60.71 257.85 63.39 259.33 C 67.49 265.90 60.72 271.44 55.03 273.72 C 56.49 274.13 57.96 274.53 59.41 274.99 C 55.92 274.87 52.40 274.96 48.97 274.18 C 47.70 272.36 46.26 270.67 44.81 268.99 C 42.04 262.04 49.11 264.78 50.92 259.84 C 54.48 263.31 52.11 256.19 55.07 256.03 Z" />
    <path fill="#d5d2d1" d=" M 133.01 257.07 C 135.33 254.40 138.80 254.42 138.49 258.66 C 143.97 264.43 147.10 274.80 141.41 281.31 C 138.12 276.82 138.54 271.47 138.82 266.23 C 137.39 263.82 134.38 265.96 132.27 266.15 C 132.44 263.79 132.65 261.43 132.89 259.09 C 132.92 258.59 132.98 257.58 133.01 257.07 Z" />
    <path fill="#a07f50" d=" M 74.45 257.14 C 75.97 257.01 77.42 256.49 78.89 256.13 C 79.90 258.88 81.35 265.24 84.87 260.83 C 83.05 265.85 84.78 266.55 89.02 263.94 C 87.86 267.91 88.10 270.98 92.88 271.13 C 89.61 272.68 89.64 275.63 93.41 276.22 C 95.59 280.76 100.89 281.40 105.19 282.72 C 99.49 287.46 93.87 281.55 88.04 280.95 C 86.88 277.95 85.85 275.15 84.30 273.35 C 91.68 271.28 83.81 269.44 79.88 268.25 C 83.51 272.73 75.68 280.93 75.32 273.05 C 73.16 270.33 70.39 266.97 66.94 270.00 C 70.43 266.23 70.70 260.59 74.45 257.14 Z" />
    <path fill="#dedbd9" d=" M 254.30 257.37 C 254.70 256.99 255.50 256.22 255.90 255.84 C 255.93 257.49 255.90 259.14 255.83 260.79 C 255.77 273.42 250.58 285.82 251.18 298.13 C 251.62 285.67 247.17 295.04 249.73 300.36 C 247.37 314.55 249.49 329.13 244.70 342.99 C 243.80 342.17 242.92 341.33 242.04 340.50 C 245.11 325.93 232.33 316.08 222.87 306.96 C 231.00 309.97 235.66 317.69 242.84 321.99 C 248.60 315.67 245.31 306.33 246.74 298.69 C 246.72 293.99 247.61 287.78 243.02 284.90 C 241.64 279.32 245.12 282.40 247.99 284.04 C 251.01 275.42 247.16 264.40 254.30 257.37 Z" />
    <path fill="#bbb3ac" d=" M 120.01 256.95 C 121.87 258.42 123.94 261.20 126.25 258.76 C 129.53 262.56 127.95 268.17 129.10 272.80 C 133.66 273.01 132.71 269.41 132.27 266.15 C 134.38 265.96 137.39 263.82 138.82 266.23 C 138.54 271.47 138.12 276.82 141.41 281.31 L 141.83 282.15 C 137.09 279.11 129.36 279.54 126.89 274.03 C 127.01 269.60 127.02 265.17 126.94 260.76 C 124.64 261.09 125.02 264.18 123.17 265.00 C 122.03 262.34 121.04 259.63 120.01 256.95 Z" />
    <path fill="#eceaea" d=" M 246.04 279.82 C 250.11 276.28 243.06 256.38 254.30 257.37 C 247.16 264.40 251.01 275.42 247.99 284.04 C 245.12 282.40 241.64 279.32 243.02 284.90 C 233.99 274.31 220.59 269.21 209.02 261.93 C 203.83 261.50 209.84 254.21 212.62 258.34 C 224.29 264.60 234.89 272.71 246.04 279.82 Z" />
    <path fill="#f7f3f1" d=" M 251.18 298.13 C 250.58 285.82 255.77 273.42 255.83 260.79 C 256.47 273.88 257.16 286.99 255.14 300.02 C 251.80 313.51 250.51 328.12 255.63 341.36 C 257.09 344.07 253.09 345.56 253.16 348.03 C 255.53 364.55 250.97 383.34 262.00 397.52 L 262.00 400.00 L 241.78 400.00 C 244.07 387.23 251.80 375.47 251.10 362.00 C 250.20 359.79 252.58 354.95 249.10 353.90 C 243.76 366.75 244.98 383.34 234.69 393.73 C 231.05 393.52 230.25 386.99 226.65 384.95 L 227.48 384.32 C 228.89 383.37 230.27 382.32 231.36 381.00 C 234.07 377.42 235.78 373.21 237.20 368.99 C 237.65 367.73 238.08 366.47 238.47 365.20 C 241.08 357.95 241.43 350.00 244.70 342.99 C 249.49 329.13 247.37 314.55 249.73 300.36 C 250.09 299.80 250.82 298.69 251.18 298.13 Z" />
    <path fill="#bdbfc5" d=" M 17.21 261.85 C 18.23 262.83 19.25 263.82 20.25 264.82 C 21.72 270.39 17.55 276.06 20.36 281.52 C 24.27 287.98 16.61 288.58 12.92 290.99 C 12.95 290.28 13.01 288.87 13.05 288.16 C 20.27 285.01 17.29 275.62 13.89 270.60 C 13.59 267.26 15.47 264.50 17.21 261.85 Z" />
    <path fill="#bbb9a2" d=" M 55.22 262.17 C 60.35 260.29 59.36 265.43 54.97 264.98 C 51.45 265.88 53.99 263.36 55.22 262.17 Z" />
    <path fill="#dadce0" d=" M 20.25 264.82 C 24.39 268.54 32.27 268.00 34.61 273.29 C 34.29 278.54 32.72 285.38 27.04 287.22 C 29.20 288.86 30.86 290.62 28.12 292.66 C 26.23 293.33 25.26 295.37 26.61 297.05 C 26.45 297.31 26.13 297.84 25.98 298.10 C 24.38 298.86 23.95 300.60 23.30 302.09 C 18.98 305.54 14.47 309.07 12.12 314.23 C 14.01 306.36 9.53 298.30 12.92 290.99 C 16.61 288.58 24.27 287.98 20.36 281.52 C 17.55 276.06 21.72 270.39 20.25 264.82 Z" />
    <path fill="#56462e" d=" M 66.94 270.00 C 70.39 266.97 73.16 270.33 75.32 273.05 C 72.62 273.23 69.92 273.21 67.25 273.59 C 64.24 274.03 62.01 276.63 59.25 277.73 C 56.39 277.40 53.55 277.06 50.68 276.96 C 53.88 276.35 57.28 276.41 60.35 275.19 C 62.97 274.11 64.90 271.89 66.94 270.00 Z" />
    <path fill="#89683b" d=" M 79.88 268.25 C 83.81 269.44 91.68 271.28 84.30 273.35 C 85.85 275.15 86.88 277.95 88.04 280.95 C 83.96 281.56 84.08 277.15 80.64 278.02 C 80.31 280.69 79.32 283.20 78.90 285.85 C 74.35 287.37 74.37 282.46 72.84 279.57 C 71.84 276.94 68.97 276.02 66.89 274.46 L 67.25 273.59 C 69.92 273.21 72.62 273.23 75.32 273.05 C 75.68 280.93 83.51 272.73 79.88 268.25 Z" />
    <path fill="#8f8770" d=" M 42.02 268.98 C 42.72 268.99 44.11 268.99 44.81 268.99 C 46.26 270.67 47.70 272.36 48.97 274.18 C 46.27 273.63 43.94 272.13 41.66 270.67 C 41.75 270.25 41.93 269.41 42.02 268.98 Z" />
    <path fill="#9898a0" d=" M 13.89 270.60 C 17.29 275.62 20.27 285.01 13.05 288.16 C 12.97 282.29 12.93 276.41 13.89 270.60 Z" />
    <path fill="#604a37" d=" M 41.11 274.64 C 41.20 273.30 41.36 271.97 41.66 270.67 C 43.94 272.13 46.27 273.63 48.97 274.18 C 49.11 275.43 48.93 277.06 50.68 276.96 C 52.08 278.80 53.21 281.64 55.96 280.02 C 55.27 280.70 54.57 281.38 53.86 282.06 C 51.18 281.53 53.17 284.63 52.99 286.06 C 48.35 282.96 44.45 279.05 41.11 274.64 Z" />
    <path fill="#1d0e05" d=" M 59.25 277.73 C 62.01 276.63 64.24 274.03 67.25 273.59 L 66.89 274.46 C 60.71 277.82 65.53 281.46 69.96 284.11 C 73.09 284.63 72.83 287.11 72.39 289.63 C 79.79 290.88 82.71 298.68 88.53 302.56 C 94.13 306.58 98.34 312.02 102.79 317.19 C 101.05 320.38 106.46 320.23 108.16 321.82 C 110.79 331.11 122.04 333.47 127.78 340.28 C 128.09 341.81 128.58 344.11 126.32 342.61 C 118.37 337.63 110.96 331.77 102.92 326.93 C 94.77 319.32 86.79 311.53 78.46 304.12 C 74.28 299.25 69.03 295.58 63.94 291.77 C 62.00 290.26 60.21 288.58 58.29 287.05 C 57.27 286.26 56.19 285.57 55.12 284.86 C 54.69 283.93 54.27 283.00 53.86 282.06 C 54.57 281.38 55.27 280.70 55.96 280.02 C 57.03 279.22 58.13 278.46 59.25 277.73 Z" />
    <path fill="#938876" d=" M 48.97 274.18 C 52.40 274.96 55.92 274.87 59.41 274.99 L 60.35 275.19 C 57.28 276.41 53.88 276.35 50.68 276.96 C 48.93 277.06 49.11 275.43 48.97 274.18 Z" />
    <path fill="#b69064" d=" M 93.41 276.22 C 96.94 270.84 105.13 275.74 107.46 279.66 C 106.82 283.99 115.33 277.22 113.75 282.00 C 110.93 282.54 108.05 282.63 105.19 282.72 C 100.89 281.40 95.59 280.76 93.41 276.22 Z" />
    <path fill="#80838d" d=" M 41.11 274.64 C 44.45 279.05 48.35 282.96 52.99 286.06 C 53.17 284.63 51.18 281.53 53.86 282.06 C 54.27 283.00 54.69 283.93 55.12 284.86 C 53.98 287.69 52.64 290.46 50.84 292.94 C 48.11 290.72 40.30 283.09 43.05 292.95 C 49.59 314.43 60.23 334.62 70.92 354.21 C 67.13 338.50 58.24 324.10 57.05 307.76 C 64.17 309.83 67.05 317.49 71.01 322.98 C 82.27 339.04 90.17 358.92 108.14 368.75 C 116.34 371.62 121.55 379.42 129.86 382.15 C 137.65 384.24 142.54 391.88 150.44 393.45 C 156.79 393.68 161.59 398.18 167.44 400.00 L 138.49 400.00 C 128.33 387.99 108.68 390.96 100.69 376.33 C 84.46 357.78 77.86 332.59 60.96 314.82 C 64.05 333.53 74.49 350.41 77.97 369.06 C 78.80 371.08 75.50 369.76 75.34 368.64 C 68.21 357.35 63.53 344.76 56.57 333.38 C 49.23 321.60 43.95 308.63 40.89 295.13 C 38.56 297.21 35.89 298.69 32.66 297.80 C 33.16 296.14 34.48 295.17 36.17 294.96 C 41.87 291.00 39.37 280.93 41.11 274.64 Z" />
    <path fill="#6c4c2a" d=" M 69.96 284.11 C 65.53 281.46 60.71 277.82 66.89 274.46 C 68.97 276.02 71.84 276.94 72.84 279.57 C 72.68 281.84 73.36 284.97 69.96 284.11 Z" />
    <path fill="#a39b85" d=" M 50.68 276.96 C 53.55 277.06 56.39 277.40 59.25 277.73 C 58.13 278.46 57.03 279.22 55.96 280.02 C 53.21 281.64 52.08 278.80 50.68 276.96 Z" />
    <path fill="#b38557" d=" M 116.01 276.97 C 122.40 275.56 117.48 282.37 120.69 284.21 C 124.96 284.91 130.29 286.28 133.13 290.05 C 125.68 288.73 113.50 287.70 116.01 276.97 Z" />
    <path fill="#6e4f28" d=" M 80.64 278.02 C 84.08 277.15 83.96 281.56 88.04 280.95 C 90.15 283.97 87.55 284.27 84.83 284.32 C 89.51 287.10 91.65 291.79 96.11 294.68 C 93.96 297.69 97.76 300.13 98.13 303.11 C 94.39 302.78 92.16 298.38 92.72 294.93 C 86.49 300.65 83.56 288.92 78.90 285.85 C 79.32 283.20 80.31 280.69 80.64 278.02 Z" />
    <path fill="#483115" d=" M 69.96 284.11 C 73.36 284.97 72.68 281.84 72.84 279.57 C 74.37 282.46 74.35 287.37 78.90 285.85 C 83.56 288.92 86.49 300.65 92.72 294.93 C 92.16 298.38 94.39 302.78 98.13 303.11 C 97.76 300.13 93.96 297.69 96.11 294.68 C 97.27 295.79 98.37 296.96 99.46 298.14 C 101.35 300.69 99.89 304.13 100.97 306.96 C 104.16 309.52 107.51 311.90 110.38 314.85 C 107.38 313.44 104.85 315.06 102.79 317.19 C 98.34 312.02 94.13 306.58 88.53 302.56 C 82.71 298.68 79.79 290.88 72.39 289.63 C 72.83 287.11 73.09 284.63 69.96 284.11 Z" />
    <path fill="#8b6738" d=" M 88.04 280.95 C 93.87 281.55 99.49 287.46 105.19 282.72 C 103.37 284.17 99.94 288.23 104.10 288.95 C 110.53 288.93 115.92 292.66 121.90 294.42 C 121.60 295.24 121.26 296.05 120.89 296.85 C 119.27 297.56 117.14 298.02 116.79 300.08 C 110.71 300.82 103.35 288.69 99.46 298.14 C 98.37 296.96 97.27 295.79 96.11 294.68 C 91.65 291.79 89.51 287.10 84.83 284.32 C 87.55 284.27 90.15 283.97 88.04 280.95 Z" />
    <path fill="#a17d4b" d=" M 105.19 282.72 C 108.05 282.63 110.93 282.54 113.75 282.00 C 114.04 287.91 121.34 291.73 126.88 290.88 C 123.97 297.81 135.04 299.52 140.05 301.00 C 140.65 298.12 138.66 295.95 137.01 293.89 C 140.44 294.59 141.18 299.12 144.83 299.24 C 149.17 299.73 152.28 302.69 155.15 305.68 C 152.42 307.68 149.65 303.47 147.67 306.91 C 144.76 302.50 141.73 304.16 143.83 309.06 C 137.98 308.21 134.74 304.46 128.83 304.18 C 124.74 303.79 122.20 300.42 120.89 296.85 C 121.26 296.05 121.60 295.24 121.90 294.42 C 115.92 292.66 110.53 288.93 104.10 288.95 C 99.94 288.23 103.37 284.17 105.19 282.72 Z" />
    <path fill="#bfb5a8" d=" M 141.83 282.15 C 145.95 282.06 150.07 281.96 154.20 281.83 C 157.52 282.00 160.82 282.32 164.12 282.81 C 156.70 282.75 149.14 283.80 141.83 282.15 Z" />
    <path fill="#ada698" d=" M 164.94 282.92 C 174.32 284.12 183.24 287.61 192.28 290.25 C 186.40 291.99 180.64 286.43 174.62 288.85 C 170.76 288.74 167.01 287.66 163.25 286.93 C 156.14 282.97 173.81 286.59 164.94 282.92 Z" />
    <path fill="#7b7b84" d=" M 55.12 284.86 C 56.19 285.57 57.27 286.26 58.29 287.05 C 56.53 291.64 54.39 296.08 52.99 300.81 C 51.25 300.32 49.55 299.69 47.82 299.18 C 49.23 304.46 50.49 310.64 54.96 314.19 C 54.84 310.40 54.15 306.64 54.00 302.86 C 70.92 311.43 77.28 331.68 90.71 344.28 C 108.36 360.34 126.00 377.34 148.26 386.81 C 154.28 389.06 158.90 393.91 164.86 396.16 C 176.55 398.07 189.32 399.05 200.15 393.25 C 204.25 391.00 211.17 389.79 210.38 383.60 C 210.80 383.71 211.66 383.94 212.09 384.05 C 214.12 384.62 216.16 385.18 218.21 385.75 C 213.86 384.89 215.84 390.50 212.59 391.54 C 207.91 393.30 203.71 396.02 200.64 400.00 L 167.44 400.00 C 161.59 398.18 156.79 393.68 150.44 393.45 C 142.54 391.88 137.65 384.24 129.86 382.15 C 121.55 379.42 116.34 371.62 108.14 368.75 C 90.17 358.92 82.27 339.04 71.01 322.98 C 67.05 317.49 64.17 309.83 57.05 307.76 C 58.24 324.10 67.13 338.50 70.92 354.21 C 60.23 334.62 49.59 314.43 43.05 292.95 C 40.30 283.09 48.11 290.72 50.84 292.94 C 52.64 290.46 53.98 287.69 55.12 284.86 Z" />
    <path fill="#757378" d=" M 58.29 287.05 C 60.21 288.58 62.00 290.26 63.94 291.77 C 63.65 292.30 63.07 293.35 62.78 293.88 C 57.51 290.71 53.29 299.57 58.23 302.79 C 73.20 314.79 90.06 326.59 99.94 343.07 C 108.55 346.15 108.25 357.01 115.85 361.21 C 130.79 374.92 149.54 382.63 166.35 393.59 C 179.49 393.30 194.10 394.40 205.51 387.63 C 205.52 384.56 207.47 383.47 210.38 383.60 C 211.17 389.79 204.25 391.00 200.15 393.25 C 189.32 399.05 176.55 398.07 164.86 396.16 C 158.90 393.91 154.28 389.06 148.26 386.81 C 126.00 377.34 108.36 360.34 90.71 344.28 C 77.28 331.68 70.92 311.43 54.00 302.86 C 54.15 306.64 54.84 310.40 54.96 314.19 C 50.49 310.64 49.23 304.46 47.82 299.18 C 49.55 299.69 51.25 300.32 52.99 300.81 C 54.39 296.08 56.53 291.64 58.29 287.05 Z" />
    <path fill="#e2dbd5" d=" M 174.62 288.85 C 180.64 286.43 186.40 291.99 192.28 290.25 C 194.34 290.65 196.61 290.93 198.12 292.56 C 195.61 292.49 195.07 293.85 195.78 296.04 C 192.44 295.69 189.19 294.94 185.88 294.50 C 185.38 294.38 184.38 294.13 183.89 294.01 C 188.80 291.10 180.23 290.71 177.88 290.04 C 176.79 289.64 175.70 289.25 174.62 288.85 Z" />
    <path fill="#b3a696" d=" M 177.88 290.04 C 180.23 290.71 188.80 291.10 183.89 294.01 C 182.02 293.66 180.69 292.20 179.20 291.14 C 178.87 290.87 178.21 290.32 177.88 290.04 Z" />
    <path fill="#b99468" d=" M 126.88 290.88 C 130.55 290.67 133.75 292.52 137.01 293.89 C 138.66 295.95 140.65 298.12 140.05 301.00 C 135.04 299.52 123.97 297.81 126.88 290.88 Z" />
    <path fill="#997442" d=" M 179.20 291.14 C 180.69 292.20 182.02 293.66 183.89 294.01 C 184.38 294.13 185.38 294.38 185.88 294.50 C 195.62 302.93 202.51 313.94 211.83 322.79 C 211.26 327.74 209.26 324.46 207.44 322.09 C 206.36 328.05 198.55 327.01 196.27 332.10 C 196.80 330.15 196.47 328.68 194.23 328.42 C 193.21 324.99 195.55 322.46 196.86 319.68 C 193.74 321.05 191.15 326.17 188.08 321.97 C 186.51 320.84 185.44 317.31 183.18 319.04 C 181.32 317.21 180.11 314.66 182.27 312.52 C 179.90 306.62 179.14 300.10 175.08 294.94 C 173.08 291.67 175.43 290.91 179.20 291.14 Z" />
    <path fill="#404946" d=" M 20.90 312.52 C 26.05 306.83 28.64 297.74 33.26 292.07 C 35.01 291.85 35.31 293.88 36.17 294.96 C 34.48 295.17 33.16 296.14 32.66 297.80 C 31.97 299.08 31.36 300.41 30.74 301.74 C 27.64 305.08 26.14 316.75 20.90 312.52 Z" />
    <path fill="#d7cec9" d=" M 62.78 293.88 C 63.07 293.35 63.65 292.30 63.94 291.77 C 69.03 295.58 74.28 299.25 78.46 304.12 C 69.16 308.67 68.39 298.32 62.78 293.88 Z" />
    <path fill="#a19b9a" d=" M 249.73 300.36 C 247.17 295.04 251.62 285.67 251.18 298.13 C 250.82 298.69 250.09 299.80 249.73 300.36 Z" />
    <path fill="#80888a" d=" M 26.61 297.05 C 25.26 295.37 26.23 293.33 28.12 292.66 C 29.74 294.32 27.60 295.81 26.61 297.05 Z" />
    <path fill="#71696c" d=" M 58.23 302.79 C 53.29 299.57 57.51 290.71 62.78 293.88 C 68.39 298.32 69.16 308.67 78.46 304.12 C 86.79 311.53 94.77 319.32 102.92 326.93 C 104.94 329.24 107.00 331.51 108.94 333.90 C 110.00 338.19 115.24 339.43 116.02 343.97 C 117.09 364.72 140.54 372.28 154.41 383.57 C 168.10 393.42 186.20 391.09 201.71 387.70 C 203.37 385.73 204.02 382.56 207.16 382.62 C 208.24 382.92 209.31 383.25 210.38 383.60 C 207.47 383.47 205.52 384.56 205.51 387.63 C 194.10 394.40 179.49 393.30 166.35 393.59 C 149.54 382.63 130.79 374.92 115.85 361.21 C 108.25 357.01 108.55 346.15 99.94 343.07 C 90.06 326.59 73.20 314.79 58.23 302.79 Z" />
    <path fill="#b88855" d=" M 175.25 303.38 C 176.43 300.99 168.21 289.74 175.08 294.94 C 179.14 300.10 179.90 306.62 182.27 312.52 C 180.11 314.66 181.32 317.21 183.18 319.04 C 179.87 326.88 178.92 315.68 176.52 312.55 C 175.07 306.82 167.37 314.06 170.99 316.97 C 173.74 321.36 164.95 317.33 166.30 313.66 C 159.17 314.34 153.89 309.28 147.67 306.91 C 149.65 303.47 152.42 307.68 155.15 305.68 C 157.23 305.08 159.70 304.94 160.86 302.83 C 163.55 298.83 168.10 303.45 169.83 306.20 C 168.02 293.40 171.44 307.32 175.25 303.38 Z" />
    <path fill="#825527" d=" M 99.46 298.14 C 103.35 288.69 110.71 300.82 116.79 300.08 C 126.24 303.71 133.32 312.53 143.05 316.19 C 137.27 322.32 130.27 314.41 124.53 312.69 C 121.04 315.11 120.78 313.44 122.40 310.27 C 119.84 307.48 119.47 302.52 115.04 302.06 C 113.00 305.53 112.71 309.66 115.07 313.05 C 113.45 312.27 111.88 311.37 110.21 310.70 C 110.75 312.23 112.21 313.80 111.13 315.45 L 110.38 314.85 C 107.51 311.90 104.16 309.52 100.97 306.96 C 99.89 304.13 101.35 300.69 99.46 298.14 Z" />
    <path fill="#868c9a" d=" M 32.66 297.80 C 35.89 298.69 38.56 297.21 40.89 295.13 C 43.95 308.63 49.23 321.60 56.57 333.38 C 63.53 344.76 68.21 357.35 75.34 368.64 C 75.50 369.76 78.80 371.08 77.97 369.06 C 74.49 350.41 64.05 333.53 60.96 314.82 C 77.86 332.59 84.46 357.78 100.69 376.33 C 108.68 390.96 128.33 387.99 138.49 400.00 L 119.48 400.00 C 100.55 387.50 88.84 367.61 77.05 348.73 C 77.52 359.37 84.93 368.73 84.67 379.46 C 81.89 383.80 90.77 396.69 81.76 393.26 C 79.63 391.82 77.61 390.21 75.90 388.29 C 74.04 384.09 72.27 379.95 73.78 375.14 C 69.28 364.85 65.14 353.14 55.03 346.97 C 40.33 337.02 40.53 317.93 38.85 302.16 C 36.15 302.01 33.44 301.87 30.74 301.74 C 31.36 300.41 31.97 299.08 32.66 297.80 Z" />
    <path fill="#5c3b17" d=" M 116.79 300.08 C 117.14 298.02 119.27 297.56 120.89 296.85 C 122.20 300.42 124.74 303.79 128.83 304.18 C 133.69 307.57 138.34 316.48 144.91 310.96 C 152.41 319.55 163.46 323.47 173.65 327.52 C 178.10 325.71 172.57 324.00 172.87 321.06 C 178.75 320.77 182.03 324.68 179.83 330.60 C 170.65 329.95 179.16 341.33 172.65 343.62 C 168.83 345.37 175.10 345.45 176.65 346.26 C 181.42 346.81 183.59 351.85 188.73 350.47 C 195.69 354.53 181.74 351.57 183.10 356.89 C 183.83 358.95 185.00 363.67 187.77 360.86 C 189.60 359.02 188.92 361.86 189.09 363.05 C 186.67 363.17 184.28 362.71 181.95 362.12 C 181.30 361.45 180.67 360.77 180.06 360.08 C 176.88 357.11 177.99 351.00 173.32 349.75 C 170.79 348.93 168.21 348.12 166.08 346.47 C 167.87 345.49 170.00 344.73 170.41 342.48 C 177.68 339.39 167.38 336.69 168.92 330.99 C 164.45 332.22 167.47 338.36 166.00 341.81 C 165.34 341.29 164.71 340.76 164.09 340.20 C 165.15 335.98 165.34 329.94 159.63 330.42 C 155.71 330.64 154.22 327.22 153.58 323.96 C 150.05 325.82 154.71 329.19 152.87 331.86 C 151.52 334.21 152.46 335.76 155.05 336.28 C 152.89 341.03 147.35 333.06 143.28 334.77 C 145.25 330.85 145.91 325.68 140.15 325.98 C 142.54 329.26 137.77 332.38 138.58 327.77 C 135.86 328.84 132.21 333.06 130.36 328.63 C 131.20 318.60 128.50 324.84 126.46 328.06 C 125.59 325.13 124.58 320.68 120.56 322.37 C 115.18 325.86 113.34 319.47 117.89 318.44 C 116.00 316.53 112.68 318.23 111.13 315.45 C 112.21 313.80 110.75 312.23 110.21 310.70 C 111.88 311.37 113.45 312.27 115.07 313.05 C 112.71 309.66 113.00 305.53 115.04 302.06 C 119.47 302.52 119.84 307.48 122.40 310.27 C 120.78 313.44 121.04 315.11 124.53 312.69 C 130.27 314.41 137.27 322.32 143.05 316.19 C 133.32 312.53 126.24 303.71 116.79 300.08 Z" />
    <path fill="#898d84" d=" M 23.30 302.09 C 23.95 300.60 24.38 298.86 25.98 298.10 C 26.87 300.16 25.95 302.85 23.30 302.09 Z" />
    <path fill="#8993aa" d=" M 12.12 314.23 C 14.47 309.07 18.98 305.54 23.30 302.09 C 23.28 305.98 16.42 309.39 20.90 312.52 C 26.14 316.75 27.64 305.08 30.74 301.74 C 33.44 301.87 36.15 302.01 38.85 302.16 C 40.53 317.93 40.33 337.02 55.03 346.97 C 65.14 353.14 69.28 364.85 73.78 375.14 C 72.27 379.95 74.04 384.09 75.90 388.29 C 68.58 384.09 62.36 378.17 55.08 373.98 C 49.89 373.14 45.40 370.57 40.85 368.13 C 37.49 367.56 35.03 370.87 32.75 372.88 C 31.39 374.20 29.89 375.41 28.15 376.19 C 27.40 376.02 25.89 375.70 25.14 375.54 C 22.11 375.26 18.99 376.09 16.07 374.81 C 16.51 370.54 18.60 365.11 12.03 366.98 C 17.84 360.47 9.77 351.16 3.83 348.70 C 6.39 337.14 9.16 325.62 12.12 314.23 Z" />
    <path fill="#936530" d=" M 128.83 304.18 C 134.74 304.46 137.98 308.21 143.83 309.06 C 141.73 304.16 144.76 302.50 147.67 306.91 C 153.89 309.28 159.17 314.34 166.30 313.66 C 164.95 317.33 173.74 321.36 170.99 316.97 C 167.37 314.06 175.07 306.82 176.52 312.55 C 178.92 315.68 179.87 326.88 183.18 319.04 C 185.44 317.31 186.51 320.84 188.08 321.97 C 186.62 323.25 184.40 323.94 183.85 325.99 C 186.96 325.83 190.04 325.29 193.16 325.18 C 190.95 329.29 185.10 327.61 182.77 331.41 C 178.50 335.47 181.94 342.70 176.65 346.26 C 175.10 345.45 168.83 345.37 172.65 343.62 C 179.16 341.33 170.65 329.95 179.83 330.60 C 182.03 324.68 178.75 320.77 172.87 321.06 C 172.57 324.00 178.10 325.71 173.65 327.52 C 163.46 323.47 152.41 319.55 144.91 310.96 C 138.34 316.48 133.69 307.57 128.83 304.18 Z" />
    <path fill="#d0cecc" d=" M 202.90 305.96 C 207.94 306.73 213.51 308.51 217.20 311.92 C 211.90 312.44 206.24 309.76 202.90 305.96 Z" />
    <path fill="#371e0a" d=" M 102.79 317.19 C 104.85 315.06 107.38 313.44 110.38 314.85 L 111.13 315.45 C 112.68 318.23 116.00 316.53 117.89 318.44 C 113.34 319.47 115.18 325.86 120.56 322.37 C 124.58 320.68 125.59 325.13 126.46 328.06 C 128.50 324.84 131.20 318.60 130.36 328.63 C 132.21 333.06 135.86 328.84 138.58 327.77 C 137.77 332.38 142.54 329.26 140.15 325.98 C 145.91 325.68 145.25 330.85 143.28 334.77 C 147.35 333.06 152.89 341.03 155.05 336.28 C 156.53 334.51 157.96 335.34 159.18 336.88 C 157.73 337.11 156.63 338.53 156.98 340.00 C 155.51 339.34 153.67 338.36 153.96 340.93 C 153.96 345.15 149.84 344.97 146.86 344.08 C 147.71 346.52 149.16 348.69 150.12 351.09 C 145.58 351.68 142.43 344.93 138.09 348.21 C 138.76 353.81 148.01 352.83 149.89 358.30 C 141.10 356.32 134.01 350.46 125.85 347.02 C 119.47 343.60 115.02 337.71 108.94 333.90 C 107.00 331.51 104.94 329.24 102.92 326.93 C 110.96 331.77 118.37 337.63 126.32 342.61 C 128.58 344.11 128.09 341.81 127.78 340.28 C 122.04 333.47 110.79 331.11 108.16 321.82 C 106.46 320.23 101.05 320.38 102.79 317.19 Z" />
    <path fill="#69461d" d=" M 188.08 321.97 C 191.15 326.17 193.74 321.05 196.86 319.68 C 195.55 322.46 193.21 324.99 194.23 328.42 C 196.47 328.68 196.80 330.15 196.27 332.10 C 199.38 334.25 200.94 337.11 202.17 341.07 C 207.60 342.00 200.79 345.76 203.85 348.47 C 204.94 349.07 206.27 348.91 207.48 349.08 C 207.99 351.70 209.28 354.02 210.74 356.22 C 210.24 356.22 209.25 356.22 208.76 356.22 C 206.61 354.90 205.07 353.17 205.56 350.51 C 201.08 349.60 200.19 344.74 196.57 342.57 C 196.76 339.55 199.56 335.23 194.61 335.37 C 190.31 335.74 194.32 326.87 189.66 329.63 C 187.07 332.36 185.61 336.08 187.52 339.66 C 188.91 345.88 196.25 348.41 198.09 354.04 C 204.25 353.85 205.15 362.21 211.03 363.57 C 211.35 364.39 211.67 365.22 212.00 366.04 C 204.04 372.30 197.32 357.68 189.09 363.05 C 188.92 361.86 189.60 359.02 187.77 360.86 C 185.00 363.67 183.83 358.95 183.10 356.89 C 181.74 351.57 195.69 354.53 188.73 350.47 C 183.59 351.85 181.42 346.81 176.65 346.26 C 181.94 342.70 178.50 335.47 182.77 331.41 C 185.10 327.61 190.95 329.29 193.16 325.18 C 190.04 325.29 186.96 325.83 183.85 325.99 C 184.40 323.94 186.62 323.25 188.08 321.97 Z" />
    <path fill="#7f5527" d=" M 207.44 322.09 C 209.26 324.46 211.26 327.74 211.83 322.79 C 217.51 328.13 224.72 331.37 231.55 334.93 C 229.48 337.16 225.23 333.55 224.52 337.01 C 221.57 335.11 219.42 331.88 215.98 330.86 C 215.78 336.31 221.07 340.08 223.29 344.78 C 227.01 346.42 238.81 347.68 236.05 341.29 C 231.24 344.30 226.71 342.14 224.52 337.01 C 228.10 338.83 233.05 341.82 235.47 336.79 C 237.74 337.87 239.88 339.20 242.04 340.50 C 242.92 341.33 243.80 342.17 244.70 342.99 C 241.43 350.00 241.08 357.95 238.47 365.20 C 238.61 362.34 235.96 363.00 234.33 364.02 C 233.97 361.52 230.43 358.38 233.39 356.42 C 234.94 355.57 236.06 352.89 233.61 352.46 C 222.95 353.18 219.35 340.28 212.75 334.08 C 206.92 332.13 205.01 337.73 202.17 341.07 C 200.94 337.11 199.38 334.25 196.27 332.10 C 198.55 327.01 206.36 328.05 207.44 322.09 Z" />
    <path fill="#814918" d=" M 152.87 331.86 C 154.71 329.19 150.05 325.82 153.58 323.96 C 154.22 327.22 155.71 330.64 159.63 330.42 C 165.34 329.94 165.15 335.98 164.09 340.20 C 162.41 339.16 160.73 338.11 159.18 336.88 C 157.96 335.34 156.53 334.51 155.05 336.28 C 152.46 335.76 151.52 334.21 152.87 331.86 Z" />
    <path fill="#955d26" d=" M 189.66 329.63 C 194.32 326.87 190.31 335.74 194.61 335.37 C 199.56 335.23 196.76 339.55 196.57 342.57 C 200.19 344.74 201.08 349.60 205.56 350.51 C 205.07 353.17 206.61 354.90 208.76 356.22 C 210.01 358.55 213.17 360.80 211.03 363.57 C 205.15 362.21 204.25 353.85 198.09 354.04 C 196.25 348.41 188.91 345.88 187.52 339.66 C 185.61 336.08 187.07 332.36 189.66 329.63 Z" />
    <path fill="#824b19" d=" M 166.00 341.81 C 167.47 338.36 164.45 332.22 168.92 330.99 C 167.38 336.69 177.68 339.39 170.41 342.48 C 168.93 342.29 167.46 342.07 166.00 341.81 Z" />
    <path fill="#66461c" d=" M 215.98 330.86 C 219.42 331.88 221.57 335.11 224.52 337.01 C 226.71 342.14 231.24 344.30 236.05 341.29 C 238.81 347.68 227.01 346.42 223.29 344.78 C 221.07 340.08 215.78 336.31 215.98 330.86 Z" />
    <path fill="#665f60" d=" M 108.94 333.90 C 115.02 337.71 119.47 343.60 125.85 347.02 C 127.14 348.46 128.49 349.85 129.98 351.08 C 131.70 354.82 128.29 359.90 132.77 362.24 C 148.68 371.66 161.88 390.58 182.55 386.45 C 188.63 383.27 195.84 383.93 202.23 381.58 C 203.88 381.88 205.54 382.16 207.16 382.62 C 204.02 382.56 203.37 385.73 201.71 387.70 C 186.20 391.09 168.10 393.42 154.41 383.57 C 140.54 372.28 117.09 364.72 116.02 343.97 C 115.24 339.43 110.00 338.19 108.94 333.90 Z" />
    <path fill="#9e642b" d=" M 202.17 341.07 C 205.01 337.73 206.92 332.13 212.75 334.08 C 219.35 340.28 222.95 353.18 233.61 352.46 C 236.06 352.89 234.94 355.57 233.39 356.42 C 230.43 358.38 233.97 361.52 234.33 364.02 C 232.90 365.09 231.21 365.31 229.85 363.99 C 225.20 355.14 219.51 347.19 213.66 339.37 C 206.91 335.17 207.79 345.31 203.85 348.47 C 200.79 345.76 207.60 342.00 202.17 341.07 Z" />
    <path fill="#543f1e" d=" M 224.52 337.01 C 225.23 333.55 229.48 337.16 231.55 334.93 C 232.87 335.51 234.18 336.13 235.47 336.79 C 233.05 341.82 228.10 338.83 224.52 337.01 Z" />
    <path fill="#6e360d" d=" M 156.98 340.00 C 156.63 338.53 157.73 337.11 159.18 336.88 C 159.68 338.37 158.82 340.38 156.98 340.00 Z" />
    <path fill="#401f0b" d=" M 159.18 336.88 C 160.73 338.11 162.41 339.16 164.09 340.20 C 164.71 340.76 165.34 341.29 166.00 341.81 C 167.46 342.07 168.93 342.29 170.41 342.48 C 170.00 344.73 167.87 345.49 166.08 346.47 C 168.21 348.12 170.79 348.93 173.32 349.75 C 177.99 351.00 176.88 357.11 180.06 360.08 C 173.74 355.95 166.40 353.51 161.33 347.85 C 161.77 346.55 164.03 344.04 161.18 345.26 C 157.22 347.40 156.50 343.01 156.98 340.00 C 158.82 340.38 159.68 338.37 159.18 336.88 Z" />
    <path fill="#785326" d=" M 203.85 348.47 C 207.79 345.31 206.91 335.17 213.66 339.37 C 219.51 347.19 225.20 355.14 229.85 363.99 C 225.57 364.61 220.53 367.36 216.63 364.34 C 214.27 361.70 215.36 367.41 212.00 366.04 C 211.67 365.22 211.35 364.39 211.03 363.57 C 213.17 360.80 210.01 358.55 208.76 356.22 C 209.25 356.22 210.24 356.22 210.74 356.22 C 212.78 358.37 213.97 363.32 217.74 361.81 C 218.77 360.15 220.83 356.84 221.86 355.19 C 219.48 354.15 217.02 353.08 216.52 350.23 C 214.63 350.86 212.85 351.83 210.85 352.10 C 211.60 349.52 214.21 347.77 214.11 344.91 C 211.67 345.80 208.84 346.69 207.48 349.08 C 206.27 348.91 204.94 349.07 203.85 348.47 Z" />
    <path fill="#1b0b04" d=" M 153.96 340.93 C 153.67 338.36 155.51 339.34 156.98 340.00 C 156.50 343.01 157.22 347.40 161.18 345.26 C 164.03 344.04 161.77 346.55 161.33 347.85 C 166.40 353.51 173.74 355.95 180.06 360.08 C 180.67 360.77 181.30 361.45 181.95 362.12 C 189.05 367.91 199.69 366.25 207.03 371.94 C 214.34 375.30 220.79 380.02 227.48 384.32 L 226.65 384.95 L 226.06 385.36 C 223.44 385.54 220.82 385.68 218.21 385.75 C 216.16 385.18 214.12 384.62 212.09 384.05 C 210.48 381.93 207.73 381.59 205.48 380.48 C 200.18 373.85 190.64 374.08 182.87 374.07 C 171.68 369.21 160.69 363.83 149.89 358.30 C 148.01 352.83 138.76 353.81 138.09 348.21 C 142.43 344.93 145.58 351.68 150.12 351.09 C 149.16 348.69 147.71 346.52 146.86 344.08 C 149.84 344.97 153.96 345.15 153.96 340.93 Z" />
    <path fill="#a66b31" d=" M 207.48 349.08 C 208.84 346.69 211.67 345.80 214.11 344.91 C 214.21 347.77 211.60 349.52 210.85 352.10 C 212.85 351.83 214.63 350.86 216.52 350.23 C 217.02 353.08 219.48 354.15 221.86 355.19 C 220.83 356.84 218.77 360.15 217.74 361.81 C 213.97 363.32 212.78 358.37 210.74 356.22 C 209.28 354.02 207.99 351.70 207.48 349.08 Z" />
    <path fill="#523a2c" d=" M 125.85 347.02 C 134.01 350.46 141.10 356.32 149.89 358.30 C 160.69 363.83 171.68 369.21 182.87 374.07 C 186.01 375.64 189.16 377.18 192.25 378.85 C 188.51 379.55 184.57 380.77 181.05 378.74 C 174.03 372.83 164.19 372.68 157.14 366.85 C 151.52 361.99 144.65 358.93 137.91 355.99 C 135.37 354.19 132.76 352.48 129.98 351.08 C 128.49 349.85 127.14 348.46 125.85 347.02 Z" />
    <path fill="#828598" d=" M 3.83 348.70 C 9.77 351.16 17.84 360.47 12.03 366.98 C 10.67 368.34 9.16 369.55 7.74 370.86 C 6.17 372.07 5.07 373.73 4.68 375.69 C 3.43 377.85 0.75 380.27 4.07 381.93 C 5.50 387.56 4.89 394.06 6.19 400.00 L 1.01 400.00 C 1.02 397.32 1.01 394.65 0.99 391.99 C 1.03 383.29 1.04 374.59 0.94 365.89 C 1.72 360.14 2.66 354.39 3.83 348.70 Z" />
    <path fill="#8f95a2" d=" M 77.05 348.73 C 88.84 367.61 100.55 387.50 119.48 400.00 L 108.28 400.00 C 103.94 395.18 101.10 388.09 95.11 385.09 C 92.94 387.06 92.04 390.97 88.06 390.36 C 88.49 394.33 91.74 400.58 85.60 396.36 C 84.28 395.37 83.02 394.32 81.76 393.26 C 90.77 396.69 81.89 383.80 84.67 379.46 C 84.93 368.73 77.52 359.37 77.05 348.73 Z" />
    <path fill="#5e5152" d=" M 129.98 351.08 C 132.76 352.48 135.37 354.19 137.91 355.99 C 141.57 360.28 148.52 361.69 150.55 367.37 C 154.64 379.13 170.76 387.19 181.05 378.74 C 184.57 380.77 188.51 379.55 192.25 378.85 C 195.54 379.89 198.87 380.80 202.23 381.58 C 195.84 383.93 188.63 383.27 182.55 386.45 C 161.88 390.58 148.68 371.66 132.77 362.24 C 128.29 359.90 131.70 354.82 129.98 351.08 Z" />
    <path fill="#ece9e9" d=" M 249.10 353.90 C 252.58 354.95 250.20 359.79 251.10 362.00 C 251.80 375.47 244.07 387.23 241.78 400.00 L 221.70 400.00 C 223.07 395.10 224.72 390.27 226.06 385.36 L 226.65 384.95 C 230.25 386.99 231.05 393.52 234.69 393.73 C 244.98 383.34 243.76 366.75 249.10 353.90 Z" />
    <path fill="#554542" d=" M 137.91 355.99 C 144.65 358.93 151.52 361.99 157.14 366.85 C 164.19 372.68 174.03 372.83 181.05 378.74 C 170.76 387.19 154.64 379.13 150.55 367.37 C 148.52 361.69 141.57 360.28 137.91 355.99 Z" />
    <path fill="#4d2e12" d=" M 189.09 363.05 C 197.32 357.68 204.04 372.30 212.00 366.04 C 215.36 367.41 214.27 361.70 216.63 364.34 C 220.53 367.36 225.57 364.61 229.85 363.99 C 231.21 365.31 232.90 365.09 234.33 364.02 C 235.96 363.00 238.61 362.34 238.47 365.20 C 238.08 366.47 237.65 367.73 237.20 368.99 C 230.51 365.62 223.85 369.24 217.90 372.15 C 221.17 376.57 226.13 379.49 231.36 381.00 C 230.27 382.32 228.89 383.37 227.48 384.32 C 220.79 380.02 214.34 375.30 207.03 371.94 C 199.69 366.25 189.05 367.91 181.95 362.12 C 184.28 362.71 186.67 363.17 189.09 363.05 Z" />
    <path fill="#a5a7ae" d=" M 0.00 366.16 L 0.94 365.89 C 1.04 374.59 1.03 383.29 0.99 391.99 L 0.00 392.01 L 0.00 366.16 Z" />
    <path fill="#d0ced4" d=" M 12.03 366.98 C 18.60 365.11 16.51 370.54 16.07 374.81 C 18.99 376.09 22.11 375.26 25.14 375.54 C 18.15 378.57 25.15 389.36 22.86 395.20 C 21.55 393.12 23.52 380.93 19.07 385.25 C 18.70 390.18 19.28 395.14 20.14 400.00 L 14.07 400.00 C 15.32 389.62 10.40 380.54 7.74 370.86 C 9.16 369.55 10.67 368.34 12.03 366.98 Z" />
    <path fill="#6a401d" d=" M 217.90 372.15 C 223.85 369.24 230.51 365.62 237.20 368.99 C 235.78 373.21 234.07 377.42 231.36 381.00 C 226.13 379.49 221.17 376.57 217.90 372.15 Z" />
    <path fill="#e6e5e7" d=" M 32.75 372.88 C 35.03 370.87 37.49 367.56 40.85 368.13 C 45.40 370.57 49.89 373.14 55.08 373.98 C 62.36 378.17 68.58 384.09 75.90 388.29 C 77.61 390.21 79.63 391.82 81.76 393.26 C 83.02 394.32 84.28 395.37 85.60 396.36 C 86.46 397.58 87.32 398.80 88.21 400.00 L 38.20 400.00 C 37.55 390.71 33.31 382.16 32.75 372.88 Z" />
    <path fill="#bdbbc2" d=" M 4.68 375.69 C 5.07 373.73 6.17 372.07 7.74 370.86 C 10.40 380.54 15.32 389.62 14.07 400.00 L 10.08 400.00 C 9.76 391.47 8.97 383.19 4.68 375.69 Z" />
    <path fill="#d6d5d8" d=" M 28.15 376.19 C 29.89 375.41 31.39 374.20 32.75 372.88 C 33.31 382.16 37.55 390.71 38.20 400.00 L 32.13 400.00 C 31.41 392.07 31.58 383.53 28.15 376.19 Z" />
    <path fill="#3d2110" d=" M 182.87 374.07 C 190.64 374.08 200.18 373.85 205.48 380.48 C 207.73 381.59 210.48 381.93 212.09 384.05 C 211.66 383.94 210.80 383.71 210.38 383.60 C 209.31 383.25 208.24 382.92 207.16 382.62 C 205.54 382.16 203.88 381.88 202.23 381.58 C 198.87 380.80 195.54 379.89 192.25 378.85 C 189.16 377.18 186.01 375.64 182.87 374.07 Z" />
    <path fill="#a6a4ac" d=" M 4.07 381.93 C 0.75 380.27 3.43 377.85 4.68 375.69 C 8.97 383.19 9.76 391.47 10.08 400.00 L 6.19 400.00 C 4.89 394.06 5.50 387.56 4.07 381.93 Z" />
    <path fill="#e8e7eb" d=" M 22.86 395.20 C 25.15 389.36 18.15 378.57 25.14 375.54 C 25.89 375.70 27.40 376.02 28.15 376.19 C 31.58 383.53 31.41 392.07 32.13 400.00 L 23.06 400.00 C 23.00 398.39 22.94 396.79 22.86 395.20 Z" />
    <path fill="#b5b3b7" d=" M 19.07 385.25 C 23.52 380.93 21.55 393.12 22.86 395.20 C 22.94 396.79 23.00 398.39 23.06 400.00 L 20.14 400.00 C 19.28 395.14 18.70 390.18 19.07 385.25 Z" />
    <path fill="#9fa3af" d=" M 88.06 390.36 C 92.04 390.97 92.94 387.06 95.11 385.09 C 101.10 388.09 103.94 395.18 108.28 400.00 L 101.40 400.00 C 97.96 396.85 94.67 392.93 89.91 391.87 C 90.70 394.71 92.10 397.32 93.30 400.00 L 88.21 400.00 C 87.32 398.80 86.46 397.58 85.60 396.36 C 91.74 400.58 88.49 394.33 88.06 390.36 Z" />
    <path fill="#8d8e97" d=" M 218.21 385.75 C 220.82 385.68 223.44 385.54 226.06 385.36 C 224.72 390.27 223.07 395.10 221.70 400.00 L 200.64 400.00 C 203.71 396.02 207.91 393.30 212.59 391.54 C 215.84 390.50 213.86 384.89 218.21 385.75 Z" />
    <path fill="#f4f4f4" d=" M 0.00 392.01 L 0.99 391.99 C 1.01 394.65 1.02 397.32 1.01 400.00 L 0.00 400.00 L 0.00 392.01 Z" />
    <path fill="#e5e4e8" d=" M 89.91 391.87 C 94.67 392.93 97.96 396.85 101.40 400.00 L 93.30 400.00 C 92.10 397.32 90.70 394.71 89.91 391.87 Z" />
</svg>
